id ,successful,status        ,time                 ,type,EXP_profit_per_Commodity_unit,EXP_price    ,SAFE_price   ,ACTUAL_price ,amount    ,filled_amount,delta
524,true      ,filled        ,17-07-18 16:40:05:208,sell,3.79530008                   ,6698.88      ,6688.88      ,6698.87999999,0.06539133,0.06539133   ,0
520,false     ,missed        ,17-07-18 15:47:51:838,buy ,3.88174514                   ,6672.1       ,6682.1       ,0            ,0.06736121,0            ,0
517,true      ,filled        ,17-07-18 15:47:51:438,buy ,3.88174494                   ,6672.1       ,6682.1       ,6672.09999997,0.08096652,0.08096652   ,0
515,false     ,missed        ,17-07-18 15:01:30:562,sell,4.21425842                   ,6694.18467   ,6684.18467   ,0            ,0.1473788 ,0            ,0
512,true      ,filled        ,17-07-18 15:01:29:557,sell,4.70450336                   ,6694.18467   ,6684.18467   ,6694.18466997,0.1473788 ,0.1473788    ,0
509,false     ,missed        ,17-07-18 14:56:35:552,sell,2.03510991                   ,6711.99      ,6701.99      ,0            ,0.09244624,0            ,0
506,false     ,missed        ,17-07-18 14:56:35:102,sell,2.02510496                   ,6711.99      ,6701.99      ,0            ,0.09244624,0            ,0
502,true      ,filled        ,16-07-18 15:03:00:478,buy ,3.75319501                   ,6615         ,6625         ,6615         ,0.94441856,0.94441856   ,0
499,false     ,missed        ,16-07-18 14:59:18:666,buy ,3.62524993                   ,6621.00000001,6631.00000001,0            ,0.12457831,0            ,0
496,true      ,filled        ,16-07-18 14:59:17:596,buy ,5.20446007                   ,6621.00000001,6631.00000001,6621         ,0.12457831,0.12457831   ,0
494,true      ,filled        ,16-07-18 14:38:15:538,sell,2.72804985                   ,6661.09999985,6651.09999985,6661.1000622 ,1.06812739,1.06812738   ,0
490,true      ,filled        ,16-07-18 14:11:59:434,buy ,2.36701003                   ,6534         ,6544         ,6533.99985809,0.03720901,0.03720901   ,0
487,true      ,filled        ,16-07-18 14:11:59:432,buy ,2.40699001                   ,6533.99999999,6543.99999999,6533.99999987,0.16178338,0.16178338   ,0
484,true      ,filled        ,16-07-18 14:11:59:431,buy ,2.40721398                   ,6533.999777  ,6543.999777  ,6533.99999956,0.0236    ,0.0236       ,0
481,true      ,filled        ,16-07-18 14:11:33:379,buy ,3.47905508                   ,6526.47      ,6536.47      ,6533         ,0.10947858,0.10947858   ,6.52
478,true      ,filled        ,16-07-18 14:11:32:352,buy ,3.47905508                   ,6526.47      ,6536.47      ,6532.84339365,0.10947858,0.10947858   ,6.37
475,true      ,partial_missed,16-07-18 13:57:32:332,buy ,2.31004                      ,6533         ,6543         ,6540.93719792,0.39882147,0.07618506   ,7.93
472,true      ,filled        ,16-07-18 13:20:32:095,buy ,2.89575001                   ,6530.99999999,6540.99999999,6537.94939149,0.39000696,0.39000696   ,6.94
470,true      ,partial_missed,16-07-18 12:31:51:861,sell,4.662075                     ,6500         ,6490         ,6499.99999999,1         ,0.917664     ,0
466,true      ,filled        ,16-07-18 11:53:31:595,buy ,2.28925001                   ,6400         ,6410         ,6399.99999999,0.01765687,0.01765687   ,0
464,false     ,missed        ,16-07-18 10:50:05:155,sell,2.23923043                   ,6390.49      ,6380.49      ,0            ,0.0161    ,0            ,0
461,true      ,filled        ,16-07-18 10:50:04:863,sell,2.23923043                   ,6390.49      ,6380.49      ,6390.49      ,0.0161    ,0.0161       ,0
457,false     ,errorneous    ,15-07-18 17:31:04:416,buy ,6.39117573                   ,6325.72894691,6335.72894691,0            ,1.07649295,0            ,0
454,true      ,filled        ,15-07-18 17:31:04:191,buy ,7.40067073                   ,6325.72894691,6335.72894691,6325.7289469 ,1.07649295,1.07649295   ,0
452,true      ,filled        ,15-07-18 16:31:06:038,sell,3.93149999                   ,6360         ,6350         ,6359.99999999,1.07770939,1.07770939   ,0
448,true      ,filled        ,15-07-18 12:10:40:446,buy ,2.08749521                   ,6304         ,6314         ,6304         ,0.03626827,0.03626827   ,0
446,true      ,filled        ,15-07-18 11:53:41:425,sell,2.40189014                   ,6356.28      ,6346.28      ,6356.28      ,0.0345    ,0.0345       ,0
442,true      ,filled        ,15-07-18 02:03:14:861,buy ,4.788255                     ,6230         ,6240         ,6229.99999999,1.07594111,1.07594111   ,0
440,false     ,errorneous    ,14-07-18 23:06:09:930,sell,6.35660546                   ,6284.19659695,6274.19659695,0            ,0.62630443,0            ,0
437,true      ,filled        ,14-07-18 23:06:08:948,sell,6.35660546                   ,6284.19659695,6274.19659695,6284.19659694,0.62630443,0.62630443   ,0
434,true      ,filled        ,14-07-18 22:20:00:879,sell,2.5329                       ,6239.24      ,6229.24      ,6239.24      ,0.0346    ,0.0346       ,0
431,false     ,missed        ,14-07-18 22:19:10:617,sell,3.31143024                   ,6239.86      ,6229.86      ,0            ,0.0443    ,0            ,0
428,true      ,filled        ,14-07-18 22:19:10:131,sell,3.30142505                   ,6239.86      ,6229.86      ,6239.86      ,0.0443    ,0.0443       ,0
425,true      ,partial_missed,14-07-18 22:19:00:618,sell,3.16135512                   ,6239.86      ,6229.86      ,6233.82999966,0.041     ,0.01298921   ,6.03
422,true      ,filled        ,14-07-18 22:19:00:503,sell,3.15135                      ,6239.86      ,6229.86      ,6233.83      ,0.041     ,0.041        ,6.02
419,true      ,filled        ,14-07-18 22:18:50:618,sell,3.15135                      ,6239.86      ,6229.86      ,6233.83      ,0.0228    ,0.0228       ,6.02
416,true      ,filled        ,14-07-18 22:18:50:393,sell,3.16135482                   ,6239.86      ,6229.86      ,6239.86      ,0.0228    ,0.0228       ,0
413,true      ,filled        ,14-07-18 22:17:51:621,sell,3.07344002                   ,6239.15      ,6229.15      ,6239.15      ,0.1424    ,0.1424       ,0
410,false     ,missed        ,14-07-18 21:36:42:391,sell,3.69070499                   ,6263.51      ,6253.51      ,0            ,0.04      ,0            ,0
407,true      ,filled        ,14-07-18 21:36:42:226,sell,3.69070499                   ,6263.51      ,6253.51      ,6263.51      ,0.04      ,0.04         ,0
404,true      ,filled        ,14-07-18 21:36:16:424,sell,2.19157503                   ,6262.97      ,6252.97      ,6262.97      ,0.089001  ,0.089001     ,0
401,false     ,missed        ,14-07-18 21:16:10:237,sell,7.77621735                   ,6280.695     ,6270.695     ,0            ,0.06165478,0            ,0
398,true      ,partial_missed,14-07-18 21:16:09:482,sell,7.74620264                   ,6280.695     ,6270.695     ,6362.25974025,0.06165478,7.7e-7       ,81.56
394,false     ,errorneous    ,14-07-18 13:01:04:483,buy ,5.06368994                   ,6181.50000001,6191.50000001,0            ,0.205564  ,0            ,0
391,true      ,filled        ,14-07-18 13:01:03:504,buy ,7.82230998                   ,6181.50000001,6191.50000001,6181.5       ,0.205564  ,0.205564     ,0
389,true      ,filled        ,14-07-18 10:55:51:757,sell,2.19347974                   ,6245.66      ,6235.66      ,6241.01344968,0.0316    ,0.0316       ,4.64
386,true      ,filled        ,14-07-18 10:55:51:003,sell,2.19347974                   ,6245.66      ,6235.66      ,6245.65999999,0.0316    ,0.0316       ,0
383,false     ,missed        ,14-07-18 09:59:40:331,sell,2.05835992                   ,6224         ,6214         ,0            ,0.1405    ,0            ,0
380,true      ,filled        ,14-07-18 09:59:40:144,sell,2.06836498                   ,6224         ,6214         ,6223.99999999,0.1405    ,0.1405       ,0
376,true      ,filled        ,14-07-18 06:26:14:675,buy ,6.14549124                   ,6187.5495    ,6197.5495    ,6187.54949999,0.99973143,0.99973143   ,0
373,true      ,filled        ,14-07-18 03:39:30:305,buy ,4.20587562                   ,6230.89      ,6240.89      ,6230.88999994,0.01919999,0.01919999   ,0
370,true      ,filled        ,14-07-18 03:38:40:320,buy ,2.16218552                   ,6232.46      ,6242.46      ,6232.46      ,0.0152    ,0.0152       ,0
367,true      ,filled        ,14-07-18 03:38:30:715,buy ,2.02990958                   ,6233.24      ,6243.24      ,6233.24      ,0.0167    ,0.0167       ,0
364,false     ,missed        ,14-07-18 03:32:52:930,buy ,6.56792042                   ,6239.81      ,6249.81      ,0            ,0.0235    ,0            ,0
361,true      ,filled        ,14-07-18 03:32:51:862,buy ,6.56792042                   ,6239.81      ,6249.81      ,6239.81      ,0.0235    ,0.0235       ,0
358,false     ,missed        ,14-07-18 03:31:30:290,buy ,4.15849074                   ,6236.69      ,6246.69      ,0            ,0.0216    ,0            ,0
355,false     ,missed        ,14-07-18 01:57:03:314,buy ,7.02501677                   ,6198.9553    ,6208.9553    ,0            ,0.08698005,0            ,0
353,true      ,filled        ,14-07-18 00:19:58:234,sell,2.62133998                   ,6216.43      ,6206.43      ,6216.42999999,0.50216187,0.50216187   ,0
349,true      ,filled        ,13-07-18 23:58:05:098,buy ,2.43552501                   ,6168         ,6178         ,6168         ,0.47885479,0.47885479   ,0
347,false     ,missed        ,13-07-18 23:21:14:827,sell,2.49774038                   ,6210.94      ,6200.94      ,0            ,0.02330709,0            ,0
344,true      ,filled        ,13-07-18 23:21:14:060,sell,2.48773488                   ,6210.94      ,6200.94      ,6210.93999993,0.10587506,0.10587506   ,0
341,true      ,filled        ,13-07-18 23:16:47:534,sell,2.28342492                   ,6222.15943326,6212.15943326,6222.15943314,0.03668453,0.03668453   ,0
337,false     ,missed        ,13-07-18 22:43:32:655,buy ,6.46653997                   ,6147         ,6157         ,0            ,0.19435638,0            ,0
334,false     ,missed        ,13-07-18 22:43:32:654,buy ,8.47154003                   ,6145         ,6155         ,0            ,0.11670551,0            ,0
331,true      ,partial_missed,13-07-18 22:43:31:872,buy ,3.80886503                   ,6150         ,6160         ,6150         ,0.24152786,0.13398239   ,0
328,true      ,filled        ,13-07-18 22:43:31:871,buy ,7.09322522                   ,6148         ,6158         ,6149.99999999,0.03188429,0.03188429   ,1.99
325,false     ,missed        ,13-07-18 22:43:31:869,buy ,8.54550003                   ,6147         ,6157         ,0            ,0.37838401,0            ,0
322,false     ,missed        ,13-07-18 22:43:31:867,buy ,10.56049504                  ,6145         ,6155         ,0            ,0.11670551,0            ,0
320,true      ,filled        ,13-07-18 22:13:29:455,sell,4.36849501                   ,6211         ,6201         ,6211         ,0.63673322,0.63673322   ,0
317,false     ,missed        ,13-07-18 21:37:57:204,sell,3.92664013                   ,6288.25      ,6278.25      ,0            ,0.01809409,0            ,0
314,true      ,filled        ,13-07-18 21:37:56:880,sell,4.06671017                   ,6288.25      ,6278.25      ,6288.2499993 ,0.01809409,0.01809409   ,0
311,true      ,partial_missed,13-07-18 21:32:23:215,sell,3.10499996                   ,6302         ,6292         ,6296.95376419,0.21590236,0.03847386   ,5.04
308,true      ,filled        ,13-07-18 19:10:25:828,sell,3.26306094                   ,6272.16853224,6262.16853224,6272.16853221,0.2332989 ,0.2332989    ,0
305,false     ,missed        ,13-07-18 19:10:06:092,sell,3.53319586                   ,6272.16853226,6262.16853226,0            ,0.05616679,0            ,0
302,true      ,partial_missed,13-07-18 19:10:05:463,sell,3.52319101                   ,6272.16853226,6262.16853226,6272.16455695,0.05616679,7.9e-7       ,0
299,true      ,filled        ,13-07-18 11:58:19:530,sell,3.26401503                   ,6258.99999999,6248.99999999,6258.99999993,0.14445893,0.14445893   ,0
295,true      ,filled        ,13-07-18 07:01:13:383,buy ,40.45115001                  ,6259.73999997,6269.73999997,6259.78911367,0.22185308,0.22185308   ,0.04
292,true      ,filled        ,13-07-18 03:18:09:167,buy ,10.31885002                  ,6268.86      ,6278.86      ,6268.85999997,0.78213308,0.78213308   ,0
289,true      ,filled        ,13-07-18 03:18:08:716,buy ,14.18849984                  ,6265         ,6275         ,6268.85999973,0.04758927,0.04758927   ,3.85
286,true      ,filled        ,13-07-18 03:18:08:697,buy ,15.19099976                  ,6264         ,6274         ,6268.85999957,0.01948437,0.01948437   ,4.85
283,false     ,missed        ,13-07-18 02:39:58:433,buy ,2.26859171                   ,6094.49763428,6104.49763428,0            ,0.12078913,0            ,0
281,true      ,filled        ,12-07-18 23:07:25:808,sell,2.39049                      ,6200         ,6190         ,6200         ,1.06429247,1.06429247   ,0
278,false     ,missed        ,12-07-18 18:42:06:900,sell,3.75115497                   ,6190         ,6180         ,0            ,0.13123626,0            ,0
275,true      ,partial_missed,12-07-18 18:42:06:293,sell,5.28191995                   ,6190         ,6180         ,6190.00276434,0.13123626,0.02239225   ,0
271,true      ,filled        ,12-07-18 13:26:41:215,buy ,14.61348999                  ,6130         ,6140         ,6130         ,1.08668473,1.08668473   ,0
269,true      ,filled        ,12-07-18 09:14:55:676,sell,7.64353501                   ,6326.59      ,6316.59      ,6326.58999999,0.47119739,0.47119739   ,0
266,true      ,filled        ,12-07-18 08:20:41:324,sell,2.06636995                   ,6328.05      ,6318.05      ,6319.92999977,0.0446    ,0.0446       ,8.12
263,true      ,filled        ,12-07-18 08:20:40:602,sell,2.06636995                   ,6328.05      ,6318.05      ,6328.04999977,0.0446    ,0.0446       ,0
260,false     ,missed        ,12-07-18 08:05:21:233,sell,2.553645                     ,6335.71      ,6325.71      ,0            ,0.042     ,0            ,0
257,true      ,filled        ,12-07-18 08:05:20:267,sell,2.54364                      ,6335.71      ,6325.71      ,6335.71      ,0.042     ,0.042        ,0
254,true      ,filled        ,12-07-18 08:00:07:220,sell,2.70241503                   ,6346.15      ,6336.15      ,6346.14999999,0.33890455,0.33890455   ,0
251,true      ,filled        ,12-07-18 07:49:21:076,sell,2.38147507                   ,6346.41      ,6336.41      ,6346.40999995,0.11624694,0.11624694   ,0
247,false     ,errorneous    ,12-07-18 03:13:32:095,buy ,3.31312501                   ,6341.9       ,6351.9       ,0            ,0.59154121,0            ,0
244,false     ,errorneous    ,12-07-18 03:13:31:195,buy ,3.38309001                   ,6341.9       ,6351.9       ,0            ,0.59154121,0            ,0
241,false     ,errorneous    ,12-07-18 03:13:31:097,buy ,3.38309001                   ,6341.9       ,6351.9       ,0            ,0.59154121,0            ,0
238,true      ,filled        ,12-07-18 03:13:29:922,buy ,3.52302001                   ,6341.9       ,6351.9       ,6341.89999998,0.59154121,0.59154121   ,0
235,true      ,filled        ,12-07-18 03:09:02:948,buy ,3.46975761                   ,6341.34495506,6351.34495506,6341.34495504,0.16229938,0.16229938   ,0
232,false     ,missed        ,12-07-18 03:07:23:039,buy ,3.38979756                   ,6341.34495508,6351.34495508,0            ,0.06669467,0            ,0
229,true      ,filled        ,12-07-18 03:07:22:709,buy ,3.37980261                   ,6341.34495508,6351.34495508,6341.344955  ,0.06669467,0.06669467   ,0
226,false     ,missed        ,12-07-18 02:57:02:990,buy ,5.66454561                   ,6351.03      ,6361.03      ,0            ,0.0114    ,0            ,0
223,true      ,filled        ,12-07-18 02:57:02:108,buy ,4.8949307                    ,6351.03      ,6361.03      ,6351.03      ,0.0114    ,0.0114       ,0
220,true      ,partial_missed,12-07-18 02:56:32:986,buy ,2.28431471                   ,6351.67      ,6361.67      ,6355.94506605,0.0231    ,0.00089999   ,4.27
217,true      ,filled        ,12-07-18 02:56:30:960,buy ,2.29431098                   ,6351.67      ,6361.67      ,6351.67      ,0.0173    ,0.0173       ,0
214,true      ,partial_missed,12-07-18 02:55:21:983,buy ,3.11072033                   ,6352.73      ,6362.73      ,6359.15      ,0.0236    ,0.0108874    ,6.42
211,true      ,filled        ,12-07-18 02:55:21:071,buy ,3.11072033                   ,6352.73      ,6362.73      ,6359.14999999,0.0236    ,0.0236       ,6.41
208,false     ,missed        ,12-07-18 02:53:02:972,buy ,3.04494943                   ,6348         ,6358         ,0            ,0.0176    ,0            ,0
205,false     ,missed        ,12-07-18 02:53:01:982,buy ,3.05494431                   ,6348         ,6358         ,0            ,0.0176    ,0            ,0
202,true      ,filled        ,12-07-18 02:53:01:794,buy ,3.05494431                   ,6348         ,6358         ,6348         ,0.0176    ,0.0176       ,0
199,true      ,filled        ,12-07-18 02:46:46:906,buy ,4.22505096                   ,6347.77      ,6357.77      ,6352.28177331,0.01650284,0.01650284   ,4.51
196,true      ,filled        ,12-07-18 02:44:14:906,buy ,5.16061492                   ,6345.76      ,6355.76      ,6347.00696616,0.0201    ,0.0201       ,1.24
193,true      ,filled        ,12-07-18 02:44:14:026,buy ,2.7918                       ,6345.76      ,6355.76      ,6345.76      ,0.0201    ,0.0201       ,0
190,true      ,filled        ,12-07-18 02:43:51:895,buy ,2.63139959                   ,6345.92      ,6355.92      ,6351.11820408,0.0245    ,0.0245       ,5.19
187,true      ,filled        ,12-07-18 02:43:51:286,buy ,2.63139959                   ,6345.92      ,6355.92      ,6345.92      ,0.0245    ,0.0245       ,0
184,true      ,filled        ,12-07-18 02:43:50:907,buy ,2.63140029                   ,6345.92      ,6355.92      ,6350.30974099,0.01439719,0.01439719   ,4.38
181,true      ,filled        ,12-07-18 02:43:50:248,buy ,2.63140029                   ,6345.92      ,6355.92      ,6345.91999966,0.01439719,0.01439719   ,0
178,true      ,filled        ,12-07-18 02:38:11:172,buy ,3.36620048                   ,6347.53      ,6357.53      ,6347.52999951,0.020829  ,0.020829     ,0
176,false     ,errorneous    ,11-07-18 17:17:54:013,sell,6.89760786                   ,6378.01865448,6368.01865448,0            ,0.11243119,0            ,0
173,false     ,errorneous    ,11-07-18 17:17:52:949,sell,4.012319                     ,6373.07999999,6363.07999999,0            ,0.01      ,0            ,0
170,false     ,errorneous    ,11-07-18 17:17:52:946,sell,8.93862779                   ,6378.01865448,6368.01865448,0            ,0.11243119,0            ,0
167,true      ,filled        ,11-07-18 17:17:51:883,sell,8.94863284                   ,6378.01865448,6368.01865448,6378.01865447,1.05638441,1.05638441   ,0
163,true      ,filled        ,11-07-18 16:08:17:613,buy ,2.729105                     ,6350         ,6360         ,6350         ,1.05638441,1.05638441   ,0
161,true      ,filled        ,11-07-18 14:15:43:974,sell,5.19308998                   ,6386.36      ,6376.36      ,6386.35999998,0.48124702,0.48124702   ,0
158,true      ,filled        ,11-07-18 14:15:43:763,sell,5.19309005                   ,6386.36      ,6376.36      ,6386.36      ,0.10297475,0.10297475   ,0
155,true      ,filled        ,11-07-18 14:15:42:932,sell,5.19309005                   ,6386.36      ,6376.36      ,6386.36      ,0.10297475,0.10297475   ,0
152,true      ,filled        ,11-07-18 13:20:27:357,sell,4.79413496                   ,6362.59999998,6352.59999998,6352.99999958,0.02395929,0.02395929   ,9.6
149,true      ,filled        ,11-07-18 13:20:27:053,sell,4.79413496                   ,6362.59999998,6352.59999998,6353.00011519,0.02395929,0.02395929   ,9.59
146,true      ,filled        ,11-07-18 13:19:47:375,sell,2.65936502                   ,6360.5       ,6350.5       ,6352.99999987,0.16192433,0.16192433   ,7.5
143,true      ,filled        ,11-07-18 13:19:47:123,sell,2.65936502                   ,6360.5       ,6350.5       ,6360.49999996,0.16192433,0.16192433   ,0
139,false     ,errorneous    ,11-07-18 11:47:02:714,buy ,2.31672042                   ,6344.2       ,6354.2       ,0            ,0.01024705,0            ,0
136,false     ,errorneous    ,11-07-18 11:47:01:715,buy ,2.31672042                   ,6344.2       ,6354.2       ,0            ,0.01024705,0            ,0
133,false     ,errorneous    ,11-07-18 11:47:01:641,buy ,2.32671549                   ,6344.2       ,6354.2       ,0            ,0.01024705,0            ,0
130,false     ,errorneous    ,11-07-18 11:47:00:724,buy ,2.3267152                    ,6344.2       ,6354.2       ,0            ,0.05829395,0            ,0
127,true      ,filled        ,11-07-18 11:47:00:394,buy ,2.3267152                    ,6344.2       ,6354.2       ,6344.2       ,0.05829395,0.05829395   ,0
125,true      ,filled        ,11-07-18 11:34:21:721,sell,2.1808948                    ,6373.25      ,6363.25      ,6372.84688311,0.0154    ,0.0154       ,0.4
122,true      ,filled        ,11-07-18 09:48:40:966,sell,2.32871991                   ,6327.31      ,6317.31      ,6327.30999975,0.041638  ,0.041638     ,0
118,true      ,filled        ,11-07-18 06:46:37:150,buy ,14.16346                     ,6300         ,6310         ,6300         ,1.0577078 ,1.0577078    ,0
115,false     ,missed        ,10-07-18 12:21:02:036,buy ,5.09169499                   ,6502         ,6512         ,0            ,0.24301315,0            ,0
113,true      ,filled        ,10-07-18 01:26:07:731,sell,2.90555998                   ,6742         ,6732         ,6742         ,0.25577494,0.25577494   ,0
109,true      ,partial_missed,10-07-18 01:10:31:730,buy ,2.76550001                   ,6741         ,6751         ,6747.33815232,0.4403793 ,0.25577494   ,6.33
107,true      ,filled        ,09-07-18 22:37:13:489,sell,3.80475246                   ,6734.92753557,6724.92753557,6734.92753543,0.01356939,0.01356939   ,0
103,true      ,partial_missed,09-07-18 21:19:58:163,buy ,2.05932846                   ,6684.33660004,6694.33660004,6684.3365995 ,0.02353339,0.01356939   ,0
