id, successful, status, time, type, EXP_profit_per_Commodity_unit, EXP_price, SAFE_price, ACTUAL_price, amount, filled_amount, delta 
1261,true,partial_missed,26-07-18 19:54:32:717,buy,2.79237004,8188.648,8198.648,8192.4482,0.0227,0.00449999,3.8 
1258,false,missed,26-07-18 19:54:11:716,buy,2.21247654,8188.2095,8198.2095,0,0.0226,0,0 
1255,true,filled,26-07-18 19:54:10:876,buy,2.21247654,8188.2095,8198.2095,8188.2095,0.0226,0.0226,0 
1252,true,partial_missed,26-07-18 19:53:31:739,buy,3.48252687,8190.0134,8200.0134,8191.35305376,0.02503444,0.00005747,1.33 
1249,true,filled,26-07-18 19:53:30:766,buy,3.48252687,8190.0134,8200.0134,8190.01339994,0.02503444,0.02503444,0 
1247,true,partial_missed,26-07-18 14:42:22:104,sell,3.40016582,8261.1395,8251.13949999,8261,0.0191161,1e-8,0.13 
1244,true,filled,26-07-18 14:42:21:157,sell,3.39016064,8261.1395,8251.13949999,8261.13949968,0.0191161,0.0191161,0 
1241,false,missed,26-07-18 14:40:43:103,sell,3.65814542,8263.3239,8253.3239,0,0.050486,0,0 
1238,true,filled,26-07-18 14:40:42:621,sell,3.63813532,8263.3239,8253.3239,8263.32389989,0.050486,0.050486,0 
1235,true,partial_missed,26-07-18 14:40:41:106,sell,6.13597513,8265.828,8255.828,8265.82799973,0.0374,0.029886,0 
1232,true,partial_missed,26-07-18 14:40:40:494,sell,6.12597005,8265.828,8255.828,8264.34258475,0.0374,0.00087374,1.48 
1228,false,errorneous,26-07-18 00:46:18:333,buy,3.45991449,8232,8242,0,0.01653166,0,0 
1225,false,errorneous,26-07-18 00:46:17:835,buy,3.44992033,8232,8242,0,0.01653166,0,0 
1222,false,errorneous,26-07-18 00:46:17:333,buy,3.44991984,8232,8242,0,0.01744104,0,0 
1219,true,filled,26-07-18 00:46:16:792,buy,3.45991523,8232,8242,8232,0.01744104,0.01744104,0 
1216,false,missed,25-07-18 23:58:42:033,buy,6.23220205,8168.5069,8178.5069,0,0.01569999,0,0 
1213,true,partial_missed,25-07-18 23:58:41:326,buy,6.23220205,8168.5069,8178.5069,8169.31347761,0.01569999,0.00119999,0.8 
1210,true,filled,25-07-18 23:58:30:233,buy,4.49163961,8169.9839,8179.9839,8169.9839,0.0154,0.0154,0 
1207,false,missed,25-07-18 23:58:12:055,buy,6.88288695,8165.4052,8175.4052,0,0.0161,0,0 
1204,true,filled,25-07-18 23:58:11:718,buy,12.08028757,8165.4052,8175.4052,8165.4052,0.0161,0.0161,0 
1201,true,partial_missed,25-07-18 11:54:03:782,buy,3.24797085,8266,8276,8274,0.01067323,0.00526749,8 
1198,true,filled,25-07-18 11:54:03:502,buy,3.24797085,8266,8276,8266,0.01067323,0.01067323,0 
1195,false,missed,25-07-18 09:44:17:543,buy,14.06425009,8272.1,8282.1,0,0.06551944,0,0 
1192,false,errorneous,25-07-18 09:28:23:803,buy,6.80061505,8324.04136653,8334.04136653,0,0.46595227,0,0 
1189,true,partial_missed,25-07-18 09:28:23:211,buy,6.85059004,8324.04136653,8334.04136653,8324.04136652,0.46595227,0.40132523,0 
1186,false,missed,25-07-18 09:16:41:671,buy,6.94307501,8352.972,8362.972,0,0.15863984,0,0 
1183,true,partial_missed,25-07-18 09:16:40:842,buy,6.94307501,8352.972,8362.972,8362.0118371,0.15863984,0.00706423,9.03 
1180,false,missed,25-07-18 09:14:09:672,buy,10.61217499,8340,8350,0,0.27011781,0,0 
1177,true,partial_missed,25-07-18 09:14:09:452,buy,10.67214498,8340,8350,8340,0.38510718,0.18330718,0 
1175,false,errorneous,25-07-18 07:20:08:019,sell,3.47478665,8365.48696907,8355.48696907,0,0.65189444,0,0 
1172,true,filled,25-07-18 07:20:07:353,sell,3.47478665,8365.48696907,8355.48696907,8365.48696905,0.65189444,0.65189444,0 
1169,false,missed,25-07-18 03:35:39:461,sell,7.19632502,8490,8480,0,0.56824798,0,0 
1166,false,missed,25-07-18 03:35:38:460,sell,7.15630497,8490,8480,0,0.38498857,0,0 
1163,false,missed,25-07-18 03:35:37:461,sell,7.1463,8490,8480,0,0.56824798,0,0 
1160,false,missed,25-07-18 03:35:36:466,sell,7.12628998,8490,8480,0,0.38498857,0,0 
1157,false,missed,25-07-18 03:35:36:059,sell,7.11628502,8490,8480,0,0.56824798,0,0 
1153,true,partial_missed,25-07-18 01:10:40:401,buy,2.83053362,8256.3865,8266.3865,8256.513149,0.0232,0.01989999,0.12 
1150,false,missed,25-07-18 01:10:38:416,buy,2.84052887,8256.3865,8266.3865,0,0.0232,0,0 
1147,false,missed,25-07-18 01:10:37:482,buy,2.84052887,8256.3865,8266.3865,0,0.0232,0,0 
1144,false,missed,25-07-18 01:10:36:399,buy,2.83053362,8256.3865,8266.3865,0,0.0232,0,0 
1141,false,missed,25-07-18 01:10:35:357,buy,2.83053362,8256.3865,8266.3865,0,0.0232,0,0 
1138,false,missed,25-07-18 01:10:34:304,buy,2.83053362,8256.3865,8266.3865,0,0.0232,0,0 
1135,false,missed,25-07-18 01:10:32:403,buy,2.84052887,8256.3865,8266.3865,0,0.0232,0,0 
1132,false,missed,25-07-18 01:10:30:037,buy,2.83053362,8256.3865,8266.3865,0,0.0232,0,0 
1129,false,missed,25-07-18 01:10:27:403,buy,2.94047931,8256.3865,8266.3865,0,0.0232,0,0 
1126,true,filled,25-07-18 00:28:08:719,buy,3.29599979,8230.00000001,8240.00000001,8230,0.01839079,0.01839079,0 
1124,true,partial_missed,24-07-18 23:16:02:652,sell,6.02451548,8241.5839,8231.5839,8237.8496,0.03042689,0.0124,3.73 
1121,false,missed,24-07-18 23:16:01:649,sell,8.48574533,8241.5839,8231.5839,0,0.03042689,0,0 
1118,true,filled,24-07-18 23:16:01:389,sell,6.02451548,8241.5839,8231.5839,8241.58389996,0.03042689,0.03042689,0 
1114,true,filled,24-07-18 15:03:27:620,buy,4.2055,8260,8270,8260,0.93847265,0.93847265,0 
1111,false,missed,24-07-18 14:58:32:369,buy,4.07202538,8241.19,8251.19,0,0.0193,0,0 
1108,true,filled,24-07-18 14:58:31:965,buy,9.06952538,8241.19,8251.19,8241.19,0.0193,0.0193,0 
1106,false,errorneous,24-07-18 14:34:40:213,sell,4.31775011,8198.89999999,8188.89999999,0,0.08345476,0,0 
1103,false,errorneous,24-07-18 14:34:39:212,sell,4.57788003,8198.89999999,8188.89999999,0,0.08345476,0,0 
1100,false,errorneous,24-07-18 14:34:38:988,sell,6.30874512,8198.89999999,8188.89999999,0,0.08345476,0,0 
1097,true,filled,24-07-18 14:34:37:892,sell,6.308745,8198.89999999,8188.89999999,8198.89999998,0.61971752,0.61971752,0 
1094,false,missed,24-07-18 14:34:08:211,sell,9.70013927,8199,8189,0,0.01002302,0,0 
1091,true,filled,24-07-18 14:34:07:793,sell,9.70013927,8199,8189,8199,0.01002302,0.01002302,0 
1088,false,missed,24-07-18 14:32:47:184,sell,12.93497997,8194.59,8184.59,0,0.31512922,0,0 
1085,true,filled,24-07-18 14:32:46:609,sell,11.024025,8194.59,8184.59,8194.58999996,0.31512922,0.31512922,0 
1082,false,missed,24-07-18 14:06:41:094,sell,3.26952008,8128.1,8118.1,0,0.03587933,0,0 
1079,false,missed,24-07-18 14:06:40:709,sell,3.70973984,8128.1,8118.1,0,0.03587933,0,0 
1076,false,missed,24-07-18 14:05:31:057,sell,4.49438144,8130.5516,8120.5516,0,0.02516929,0,0 
1073,true,filled,24-07-18 14:05:30:228,sell,5.17472165,8130.5516,8120.5516,8130.55159998,0.02516929,0.02516929,0 
1070,false,missed,24-07-18 08:50:26:986,sell,6.49183925,7970.55832,7960.55832,0,0.08727756,0,0 
1067,false,missed,24-07-18 08:50:26:489,sell,2.47983422,7970.55832,7960.55832,0,0.08727756,0,0 
1063,false,errorneous,24-07-18 08:09:19:636,buy,2.28700001,7900,7910,0,0.97003905,0,0 
1060,true,filled,24-07-18 08:09:18:743,buy,2.28700001,7900,7910,7900,0.97003905,0.97003905,0 
1058,true,filled,24-07-18 07:58:25:341,sell,2.35799999,7885,7875,7885,0.97791542,0.97791542,0 
1054,true,filled,23-07-18 21:34:56:204,buy,12.06248509,7650,7660,7650,0.06488347,0.06488347,0 
1052,true,partial_missed,23-07-18 21:33:29:732,sell,3.991755,7777.3,7767.3,7771.79999987,0.07707097,0.06314166,5.5 
1048,true,filled,23-07-18 21:30:03:805,buy,17.6125,7789,7799,7790,0.88127711,0.88127711,1 
1045,true,filled,23-07-18 21:30:03:803,buy,18.61500013,7788,7798,7790,0.0948965,0.0948965,2 
1043,true,filled,23-07-18 05:44:01:429,sell,4.29216008,7660.48999996,7650.48999996,7660.48999991,0.09917816,0.09917816,0 
1040,true,filled,23-07-18 05:26:51:761,sell,2.29429476,7622.76,7612.76,7622.75999999,0.0325,0.0325,0 
1036,true,filled,23-07-18 03:11:50:677,buy,2.26402,7407.91,7417.91,7407.90999953,0.0215,0.0215,0 
1033,false,missed,23-07-18 01:47:35:219,buy,5.40899987,7392.40000001,7402.40000001,0,0.0113246,0,0 
1030,true,filled,23-07-18 01:47:35:026,buy,5.40899987,7392.40000001,7402.40000001,7392.39999911,0.0113246,0.0113246,0 
1028,true,filled,23-07-18 00:57:24:907,sell,3.2887502,7408,7398,7402.58977718,0.05017645,0.05017644,5.41 
1025,true,filled,23-07-18 00:50:25:884,sell,2.03212533,7410,7400,7410,0.03055252,0.03055252,0 
1022,false,missed,22-07-18 19:07:24:513,sell,2.61761091,7538.871615,7528.871615,0,0.16344402,0,0 
1018,false,missed,22-07-18 12:26:40:022,buy,2.77149001,7412.00000001,7422.00000001,0,0.15938253,0,0 
1015,true,filled,22-07-18 12:26:39:848,buy,2.77149001,7412.00000001,7422.00000001,7412,0.15938253,0.15938253,0 
1012,true,filled,22-07-18 11:36:01:710,buy,3.37945594,7419.24,7429.24,7423.90976881,0.0202,0.0202,4.66 
1010,true,filled,22-07-18 01:54:27:277,sell,4.653495,7450,7440,7449.99999999,1.02387091,1.02387091,0 
1007,false,missed,22-07-18 00:57:45:440,sell,5.21025001,7434.5,7424.5,0,0.11758658,0,0 
1004,false,missed,22-07-18 00:57:45:246,sell,5.21025001,7434.5,7424.5,0,0.11758658,0,0 
1000,false,errorneous,21-07-18 19:45:00:395,buy,2.84449995,7381,7391,0,0.03066057,0,0 
997,false,errorneous,21-07-18 19:44:59:659,buy,2.84449995,7381,7391,0,0.03066057,0,0 
994,false,errorneous,21-07-18 19:44:59:399,buy,2.84449995,7381,7391,0,0.03066057,0,0 
991,true,filled,21-07-18 19:44:58:594,buy,2.84449995,7381,7391,7381,0.03066057,0.03066057,0 
989,false,missed,21-07-18 19:27:06:286,sell,3.17129988,7413.8,7403.8,0,0.13506436,0,0 
986,true,partial_missed,21-07-18 19:27:05:891,sell,3.16129488,7413.8,7403.8,7413.80244069,0.13506436,0.03037336,0 
982,true,filled,21-07-18 04:02:03:184,buy,8.78875,7232,7242,7238.13753688,0.65374327,0.65374327,6.13 
979,true,filled,21-07-18 04:01:48:222,buy,2.10199003,7222.04,7232.04,7226.03241241,0.36984044,0.36984044,3.99 
977,true,filled,20-07-18 23:10:47:907,sell,18.16014,7380,7370,7380,0.98655354,0.98655354,0 
974,false,missed,20-07-18 23:09:41:470,sell,6.10029033,7364.59999999,7354.59999999,0,0.01344646,0,0 
971,true,filled,20-07-18 23:09:41:029,sell,6.10029033,7364.59999999,7354.59999999,7364.59999955,0.01344646,0.01344646,0 
967,true,filled,20-07-18 22:55:25:452,buy,3.2774,7316.66,7326.66,7316.66,1,1,0 
965,false,errorneous,20-07-18 22:32:04:271,sell,6.354165,7330,7320,0,0.96366581,0,0 
962,true,filled,20-07-18 22:32:03:269,sell,7.0245,7330,7320,7330.00007605,0.96366581,0.9636658,0 
959,false,missed,20-07-18 22:31:44:273,sell,2.71638021,7352,7342,0,0.02041603,0,0 
956,false,missed,20-07-18 22:31:44:271,sell,3.71387996,7353,7343,0,0.04221833,0,0 
953,true,partial_missed,20-07-18 22:31:44:269,sell,6.72508505,7353.10000001,7343.10000001,7351.02682313,0.11952071,0.00007158,2.07 
950,false,missed,20-07-18 22:31:44:268,sell,6.72508503,7353.10000006,7343.10000006,0,0.11187441,0,0 
947,true,filled,20-07-18 22:31:43:245,sell,9.12250501,7361.03,7351.03,7353.1,0.015952,0.015952,7.92 
944,true,filled,20-07-18 22:31:42:244,sell,7.91190007,7361.03,7351.03,7353.1,0.015952,0.015952,7.92 
941,true,filled,20-07-18 22:31:41:670,sell,7.82185493,7361.03,7351.03,7361.03,0.015952,0.015952,0 
937,true,filled,20-07-18 21:25:52:461,buy,2.15393994,7318,7328,7318,0.13607495,0.13607495,0 
935,true,filled,20-07-18 21:23:16:761,sell,2.00203497,7360,7350,7350.7368101,0.06776495,0.06776495,9.26 
932,true,filled,20-07-18 21:23:16:023,sell,2.00203497,7360,7350,7359.99999999,0.06776495,0.06776495,0 
928,true,filled,20-07-18 21:08:01:642,buy,2.76296624,7318.3895,7328.3895,7318.38949998,0.52390459,0.52390459,0 
925,false,missed,20-07-18 21:07:16:637,buy,6.46548002,7300.11,7310.11,0,0.11604384,0,0 
922,false,missed,20-07-18 21:07:15:871,buy,7.97472506,7300.11,7310.11,0,0.11604384,0,0 
919,true,partial_missed,20-07-18 21:07:14:643,buy,2.493025,7301.59,7311.59,7303.78862072,0.71511266,0.48013133,2.19 
917,true,filled,20-07-18 21:01:00:848,sell,6.25477509,7343.12,7333.12,7343.12,0.0534,0.0534,0 
914,false,missed,20-07-18 20:55:19:525,sell,2.64940493,7337.64,7327.64,0,0.06041243,0,0 
911,false,errorneous,20-07-18 20:54:49:264,sell,8.17972501,7315.11000003,7305.11000003,0,0.62706123,0,0 
908,true,filled,20-07-18 20:54:48:533,sell,13.05750001,7320,7310,7320.83658573,0.75569391,0.75569391,0.83 
905,true,partial_missed,20-07-18 20:54:48:530,sell,18.04500001,7325,7315,7318.54086834,0.20752348,0.19789864,6.45 
901,true,filled,20-07-18 20:05:16:018,buy,2.80748998,7400,7410,7400,1.01400498,1.01400498,0 
898,false,missed,20-07-18 19:59:11:124,buy,9.64000007,7448,7458,0,0.05927479,0,0 
895,false,missed,20-07-18 19:59:10:973,buy,5.9618401,7448,7458,0,0.05927479,0,0 
893,false,errorneous,20-07-18 19:42:58:033,sell,10.17251999,7628,7618,0,0.85125843,0,0 
890,false,errorneous,20-07-18 19:42:57:458,sell,12.83384999,7628,7618,0,0.85125843,0,0 
887,false,errorneous,20-07-18 19:42:57:034,sell,12.83384999,7628,7618,0,0.85125843,0,0 
884,false,errorneous,20-07-18 19:42:56:400,sell,12.81383999,7628,7618,0,0.85125843,0,0 
881,false,errorneous,20-07-18 19:42:56:033,sell,12.81383999,7628,7618,0,0.85125843,0,0 
878,false,errorneous,20-07-18 19:42:55:341,sell,10.202535,7628,7618,0,0.85125843,0,0 
875,false,errorneous,20-07-18 19:42:55:043,sell,10.202535,7628,7618,0,0.85125843,0,0 
872,false,errorneous,20-07-18 19:42:54:297,sell,10.17251999,7628,7618,0,0.85125843,0,0 
869,false,errorneous,20-07-18 19:42:54:033,sell,10.17251999,7628,7618,0,0.85125843,0,0 
866,false,errorneous,20-07-18 19:42:53:251,sell,10.17251999,7628,7618,0,0.85125843,0,0 
863,false,errorneous,20-07-18 19:42:53:034,sell,10.17251999,7628,7618,0,0.85125843,0,0 
860,false,errorneous,20-07-18 19:42:52:190,sell,13.50418499,7628,7618,0,0.85125843,0,0 
857,false,errorneous,20-07-18 19:42:52:034,sell,13.50418499,7628,7618,0,0.85125843,0,0 
854,false,errorneous,20-07-18 19:42:51:100,sell,10.17251999,7628,7618,0,0.85125843,0,0 
851,false,errorneous,20-07-18 19:42:40:036,sell,7.43425498,7630.29999998,7620.29999998,0,0.85125843,0,0 
848,true,filled,20-07-18 19:42:38:919,sell,13.50728998,7630.29999998,7620.29999998,7630.29999996,0.85125843,0.85125843,0 
845,false,missed,20-07-18 19:42:27:038,sell,8.42474994,7630.29999999,7620.29999999,0,0.12315121,0,0 
842,true,partial_missed,20-07-18 19:42:26:034,sell,7.94451008,7630.29999999,7620.29999999,7630.29804461,0.12315121,0.10739721,0 
839,true,filled,20-07-18 19:42:11:035,sell,2.11249512,7630,7620,7624.47086873,0.03056888,0.03056888,5.52 
835,true,filled,20-07-18 19:38:47:047,buy,8.18750001,7599,7609,7598.99999999,0.32312339,0.32312339,0 
832,true,filled,20-07-18 19:38:47:045,buy,10.19249984,7597,7607,7599,0.04015037,0.04015037,2 
829,true,filled,20-07-18 19:38:33:088,buy,2.5645355,7555.75557555,7565.75557555,7555.75557554,0.5,0.5,0 
826,true,filled,20-07-18 19:38:33:086,buy,2.6002001,7555.72,7565.72,7555.71999994,0.12595076,0.12595076,0 
824,true,filled,20-07-18 10:13:42:914,sell,5.92589273,7389.550504,7379.550504,7389.55050399,0.85387558,0.85387558,0 
821,true,partial_missed,20-07-18 10:13:18:333,sell,6.79471507,7389.92,7379.92,7379.99989995,0.11667374,0.04728061,9.92 
818,true,filled,20-07-18 10:13:17:855,sell,6.79471507,7389.92,7379.92,7389.91999999,0.11667374,0.11667374,0 
814,true,filled,20-07-18 09:41:27:897,buy,9.36928999,7345,7355,7345,1.01782992,1.01782992,0 
812,true,filled,20-07-18 02:15:50:200,sell,3.09352501,7456.4,7446.4,7456.39999998,0.59506614,0.59506614,0 
809,true,filled,20-07-18 02:15:46:199,sell,2.6325,7460,7450,7456.4,0.20613625,0.20613625,3.6 
806,true,filled,20-07-18 02:15:45:211,sell,2.6325,7460,7450,7458.15971232,0.20613625,0.20613625,1.84 
803,false,missed,20-07-18 02:14:16:216,sell,4.47347997,7500,7490,0,0.24703347,0,0 
800,true,partial_missed,20-07-18 02:14:15:218,sell,2.94271504,7500,7490,7492.42164959,0.24703347,0.00151116,7.57 
796,false,errorneous,20-07-18 01:03:25:829,buy,11.97738007,7401.84000001,7411.84000001,0,0.08970585,0,0 
793,true,filled,20-07-18 01:03:24:729,buy,16.03535009,7401.84000001,7411.84000001,7401.83999995,0.08970585,0.08970585,0 
791,false,missed,19-07-18 22:48:59:660,sell,5.65855506,7488.5,7478.5,0,0.08802459,0,0 
788,true,filled,19-07-18 22:48:58:873,sell,4.04775006,7488.5,7478.5,7488.49999982,0.08802459,0.08802459,0 
784,false,errorneous,19-07-18 21:45:44:709,buy,3.59456509,7394.18,7404.18,0,0.07472223,0,0 
781,true,filled,19-07-18 21:45:44:223,buy,3.59456501,7394.18,7404.18,7394.17999999,0.89636196,0.89636196,0 
778,false,missed,19-07-18 21:26:57:987,buy,6.69554498,7400.00000001,7410.00000001,0,0.44322659,0,0 
775,true,partial_missed,19-07-18 21:26:57:425,buy,6.69554498,7400.00000001,7410.00000001,7400.00066783,0.44322659,0.11080658,0 
773,true,filled,19-07-18 17:27:09:244,sell,2.40202501,7466.79,7456.79,7466.79,0.2423,0.2423,0 
769,false,missed,19-07-18 16:28:40:852,buy,3.32152001,7455.21,7465.21,0,0.2423,0,0 
766,true,filled,19-07-18 16:28:40:668,buy,3.32152001,7455.21,7465.21,7455.21,0.2423,0.2423,0 
764,true,filled,19-07-18 15:14:26:323,sell,7.28683497,7466,7456,7465.99999999,0.28141324,0.28141324,0 
760,false,missed,19-07-18 14:58:32:757,buy,4.76850001,7406,7416,0,0.3282932,0,0 
757,true,partial_missed,19-07-18 14:58:32:555,buy,4.77849502,7406,7416,7406,0.39615242,4.2e-7,0 
755,false,missed,19-07-18 14:07:02:316,sell,2.48029491,7407.35,7397.35,0,0.06832044,0,0 
752,true,partial_missed,19-07-18 14:07:01:525,sell,2.48029491,7407.35,7397.35,7407.35202108,0.06832044,0.03581024,0 
749,true,filled,19-07-18 13:28:47:947,sell,2.98595269,7401.54800777,7391.54800777,7401.39862514,0.180819,0.180819,0.14 
745,true,filled,19-07-18 12:43:33:591,buy,2.5655757,7381.27822862,7391.27822862,7386,0.0192826,0.0192826,4.72 
742,true,filled,19-07-18 12:43:33:589,buy,3.84699998,7380,7390,7385.5244073,0.19144129,0.19144129,5.52 
739,true,filled,19-07-18 12:43:33:588,buy,6.70412629,7377.15,7387.15,7386,0.0101447,0.0101447,8.85 
736,false,missed,19-07-18 12:43:18:612,buy,3.1379999,7349.8,7359.8,0,0.14141039,0,0 
733,false,missed,19-07-18 12:43:18:610,buy,3.94000015,7349,7359,0,0.09885793,0,0 
730,true,filled,19-07-18 09:40:40:771,buy,2.3167504,7323.7,7333.7,7323.7,0.0248,0.0248,0 
727,true,filled,19-07-18 08:54:43:400,buy,2.78662503,7317,7327,7317,0.04880732,0.04880732,0 
724,false,missed,19-07-18 08:03:08:989,buy,4.73479505,7287.30000001,7297.30000001,0,0.21466832,0,0 
721,true,partial_missed,19-07-18 08:03:08:628,buy,4.59486499,7287.30000001,7297.30000001,7287.3,0.80356616,0.20356616,0 
719,true,filled,19-07-18 04:00:04:118,sell,2.77060528,7363.94,7353.94,7363.93999969,0.03070001,0.03070001,0 
715,true,filled,19-07-18 02:20:33:208,buy,2.75491538,7347.56,7357.56,7347.56,0.0195,0.0195,0 
712,false,missed,19-07-18 02:18:11:214,buy,3.92589017,7347.04,7357.04,0,0.0112,0,0 
709,true,filled,19-07-18 02:18:10:299,buy,3.92589017,7347.04,7357.04,7347.03999999,0.0112,0.0112,0 
707,true,filled,19-07-18 01:12:38:675,sell,8.16505497,7320,7310,7320,0.58030852,0.58030852,0 
704,true,filled,19-07-18 01:12:38:659,sell,9.17252997,7321.01,7311.01,7320,0.11530854,0.11530854,1.01 
701,false,missed,19-07-18 00:03:11:987,sell,7.86221971,7330.89999994,7320.89999994,0,0.02032896,0,0 
698,true,filled,19-07-18 00:03:11:756,sell,14.57557445,7330.89999994,7320.89999994,7330.8999998,0.02032896,0.02032896,0 
695,true,partial_missed,18-07-18 23:57:12:972,sell,4.23810002,7325,7315,7325,0.34433318,0.28260318,0 
692,true,filled,18-07-18 23:57:12:970,sell,4.44757499,7325.21,7315.21,7325,0.02,0.02,0.21 
689,true,partial_missed,18-07-18 23:35:05:879,sell,2.29834347,7277.10760759,7267.10760759,7277.10756246,0.02746043,0.00006043,0 
685,true,filled,18-07-18 21:54:05:149,buy,2.78749999,7400,7410,7400,1.01860964,1.01860964,0 
683,true,filled,18-07-18 21:12:33:554,sell,2.34653999,7568.66,7558.66,7568.65999999,0.70752711,0.70752711,0 
680,false,missed,18-07-18 21:09:37:880,sell,8.91582004,7580,7570,0,0.29349589,0,0 
677,true,filled,18-07-18 21:09:37:423,sell,10.01637004,7580,7570,7580,0.29349589,0.29349589,0 
673,true,filled,18-07-18 21:06:24:773,buy,6.71067999,7504.90000002,7514.90000002,7504.89999999,0.59896584,0.59896584,0 
670,false,missed,18-07-18 18:29:44:552,buy,3.17332501,7388,7398,0,0.40205715,0,0 
667,true,filled,18-07-18 18:29:43:958,buy,3.17332501,7388,7398,7388,0.40205715,0.40205715,0 
665,true,filled,18-07-18 17:25:53:940,sell,9.44091,7465,7455,7464.99999998,0.58064264,0.58064264,0 
661,false,missed,18-07-18 16:48:06:530,buy,8.67954496,7405,7415,0,0.42598734,0,0 
659,true,partial_missed,18-07-18 16:40:54:826,sell,4.16950502,7437.91,7427.91,7437.90999999,0.214901,0.115501,0 
656,false,missed,18-07-18 16:40:27:821,sell,8.12692492,7446.1,7436.1,0,0.07690294,0,0 
653,true,partial_missed,18-07-18 16:40:26:986,sell,8.12692492,7446.1,7436.1,7439.2879982,0.07690294,0.00040094,6.81 
650,false,errorneous,18-07-18 16:39:33:821,sell,3.88821916,7444.95999414,7434.95999414,0,0.70098429,0,0 
647,false,missed,18-07-18 16:39:32:821,sell,3.8782143,7444.95999414,7434.95999414,0,0.09654459,0,0 
644,true,partial_missed,18-07-18 16:39:32:673,sell,3.87821417,7444.95999414,7434.95999414,7444.96073131,0.70098429,0.10098428,0 
641,true,filled,18-07-18 15:59:16:529,sell,3.10750502,7465.08,7455.08,7465.07999996,0.20879983,0.20879983,0 
637,true,filled,18-07-18 11:35:45:821,buy,5.17347626,7327.82945012,7337.82945012,7327.82945008,0.19302456,0.19302456,0 
634,true,partial_missed,18-07-18 11:33:35:525,buy,5.69944748,7321.37259604,7331.37259604,7383.04724409,0.19270842,0.00000126,61.67 
631,true,filled,18-07-18 11:33:35:174,buy,5.7194375,7321.37259604,7331.37259604,7321.37259602,0.27435132,0.27435132,0 
628,true,filled,18-07-18 11:32:36:036,buy,2.21300951,7327.33288832,7337.33288832,7327.3328883,0.083,0.083,0 
625,true,partial_missed,18-07-18 11:03:23:388,buy,3.49787999,7409.75000002,7419.75000002,7409.74999987,0.14064558,0.04104558,0 
622,true,filled,18-07-18 08:50:35:083,buy,2.36763513,7450,7460,7452.09585633,0.07645254,0.07645254,2.09 
619,false,missed,18-07-18 08:42:22:058,buy,3.32662219,7424.49708007,7434.49708007,0,0.33845342,0,0 
616,true,filled,18-07-18 08:42:21:597,buy,3.32662219,7424.49708007,7434.49708007,7424.49708001,0.33845342,0.33845342,0 
614,true,filled,18-07-18 07:10:14:834,sell,7.62000015,7465,7455,7465,0.07596203,0.07596203,0 
610,true,partial_missed,18-07-18 06:30:59:574,buy,2.74076001,7455.56,7465.56,7458.93925657,0.08252207,0.00002206,3.37 
607,true,partial_missed,18-07-18 06:28:46:564,buy,2.59752017,7450.00000001,7460.00000001,7450,0.04481534,0.00000134,0 
604,false,missed,18-07-18 06:24:58:542,buy,2.03708996,7476.89,7486.89,0,0.0518,0,0 
601,false,missed,18-07-18 06:24:57:664,buy,2.03708996,7476.89,7486.89,0,0.0518,0,0 
599,false,missed,18-07-18 06:11:43:441,sell,7.35499499,7550,7540,0,0.07593862,0,0 
596,true,partial_missed,18-07-18 06:04:15:372,sell,5.02368,7450,7440,7450,0.97167426,0.89573563,0 
593,false,missed,18-07-18 05:52:43:294,sell,2.64148519,7440.33,7430.33,0,0.0277,0,0 
590,true,filled,18-07-18 04:03:58:588,sell,4.97850036,7345,7335,7345,0.02818095,0.02818095,0 
586,true,filled,17-07-18 21:21:26:084,buy,2.54371337,7375.41769246,7385.41769246,7374.99999999,0.05658897,0.05658897,0.41 
583,true,filled,17-07-18 21:21:26:081,buy,7.86,7375,7385,7375.07509665,0.94326462,0.94326462,0.07 
580,true,partial_missed,17-07-18 21:18:30:091,buy,3.34763167,7371.41538493,7381.41538493,7371.41358024,0.05302362,0.00000162,0 
578,true,filled,17-07-18 21:16:16:964,sell,10.662975,7387.81,7377.81,7387.80999999,1.00332386,1.00332386,0 
574,true,filled,17-07-18 20:45:23:844,buy,3.3875,7200,7210,7199.99999999,0.85219542,0.85219542,0 
571,true,filled,17-07-18 20:43:56:835,buy,5.13323665,7135.05831273,7145.05831273,7135.05831244,0.02571372,0.02571372,0 
568,true,partial_missed,17-07-18 20:43:27:843,buy,3.88133753,7100.355,7110.355,7100.35499993,0.22735167,0.12541467,0 
565,true,partial_missed,17-07-18 20:43:18:840,buy,8.555065,7100,7110,9466.66666666,0.32055204,2e-8,2366.66 
562,false,missed,17-07-18 20:41:55:845,buy,5.02973506,7083.706,7093.706,0,0.27369436,0,0 
559,false,missed,17-07-18 20:41:55:843,buy,5.02973491,7083.70599999,7093.70599999,0,0.08440144,0,0 
557,true,filled,17-07-18 20:38:03:471,sell,34.28250019,6915,6905,6915,0.01863627,0.01863627,0 
554,true,filled,17-07-18 20:38:01:317,sell,19.495095,6905,6895,6901,0.08771066,0.08771066,4 
551,false,missed,17-07-18 20:38:01:315,sell,39.4450958,6925,6915,0,0.01863628,0,0 
547,true,filled,17-07-18 20:37:53:848,buy,17.86584518,6821.66,6831.66,6825.35599944,0.02036006,0.02036006,3.69 
544,true,filled,17-07-18 20:37:53:846,buy,19.11896999,6820.41,6830.41,6825.3559995,0.02,0.02,4.94 
541,true,filled,17-07-18 20:37:53:845,buy,19.52999396,6820,6830,6825.35599891,0.01281341,0.01281341,5.35 
538,true,filled,17-07-18 20:37:53:290,buy,29.03026022,6821.66,6831.66,6824.42999922,0.02036006,0.02036006,2.76 
535,true,filled,17-07-18 20:37:53:288,buy,31.10297499,6820.41,6830.41,6824.42999999,0.02,0.02,4.01 
532,true,filled,17-07-18 20:37:53:284,buy,31.51400056,6820,6830,6824.4299995,0.01281341,0.01281341,4.42 
530,true,filled,17-07-18 18:56:24:077,sell,2.136135,6781.7,6771.7,6781.69999999,1.06882675,1.06882675,0 
526,true,filled,17-07-18 18:47:14:723,buy,8.00041433,6726.77516277,6736.77516277,6726.77516276,0.13163349,0.13163349,0 
524,true,filled,17-07-18 16:40:05:208,sell,3.79530008,6698.88,6688.88,6698.87999999,0.06539133,0.06539133,0 
520,false,missed,17-07-18 15:47:51:838,buy,3.88174514,6672.1,6682.1,0,0.06736121,0,0 
517,true,filled,17-07-18 15:47:51:438,buy,3.88174494,6672.1,6682.1,6672.09999997,0.08096652,0.08096652,0 
515,false,missed,17-07-18 15:01:30:562,sell,4.21425842,6694.18467,6684.18467,0,0.1473788,0,0 
512,true,filled,17-07-18 15:01:29:557,sell,4.70450336,6694.18467,6684.18467,6694.18466997,0.1473788,0.1473788,0 
509,false,missed,17-07-18 14:56:35:552,sell,2.03510991,6711.99,6701.99,0,0.09244624,0,0 
506,false,missed,17-07-18 14:56:35:102,sell,2.02510496,6711.99,6701.99,0,0.09244624,0,0 
502,true,filled,16-07-18 15:03:00:478,buy,3.75319501,6615,6625,6615,0.94441856,0.94441856,0 
499,false,missed,16-07-18 14:59:18:666,buy,3.62524993,6621.00000001,6631.00000001,0,0.12457831,0,0 
496,true,filled,16-07-18 14:59:17:596,buy,5.20446007,6621.00000001,6631.00000001,6621,0.12457831,0.12457831,0 
494,true,filled,16-07-18 14:38:15:538,sell,2.72804985,6661.09999985,6651.09999985,6661.1000622,1.06812739,1.06812738,0 
490,true,filled,16-07-18 14:11:59:434,buy,2.36701003,6534,6544,6533.99985809,0.03720901,0.03720901,0 
487,true,filled,16-07-18 14:11:59:432,buy,2.40699001,6533.99999999,6543.99999999,6533.99999987,0.16178338,0.16178338,0 
484,true,filled,16-07-18 14:11:59:431,buy,2.40721398,6533.999777,6543.999777,6533.99999956,0.0236,0.0236,0 
481,true,filled,16-07-18 14:11:33:379,buy,3.47905508,6526.47,6536.47,6533,0.10947858,0.10947858,6.52 
478,true,filled,16-07-18 14:11:32:352,buy,3.47905508,6526.47,6536.47,6532.84339365,0.10947858,0.10947858,6.37 
475,true,partial_missed,16-07-18 13:57:32:332,buy,2.31004,6533,6543,6540.93719792,0.39882147,0.07618506,7.93 
472,true,filled,16-07-18 13:20:32:095,buy,2.89575001,6530.99999999,6540.99999999,6537.94939149,0.39000696,0.39000696,6.94 
470,true,partial_missed,16-07-18 12:31:51:861,sell,4.662075,6500,6490,6499.99999999,1,0.917664,0 
466,true,filled,16-07-18 11:53:31:595,buy,2.28925001,6400,6410,6399.99999999,0.01765687,0.01765687,0 
464,false,missed,16-07-18 10:50:05:155,sell,2.23923043,6390.49,6380.49,0,0.0161,0,0 
461,true,filled,16-07-18 10:50:04:863,sell,2.23923043,6390.49,6380.49,6390.49,0.0161,0.0161,0 
457,false,errorneous,15-07-18 17:31:04:416,buy,6.39117573,6325.72894691,6335.72894691,0,1.07649295,0,0 
454,true,filled,15-07-18 17:31:04:191,buy,7.40067073,6325.72894691,6335.72894691,6325.7289469,1.07649295,1.07649295,0 
452,true,filled,15-07-18 16:31:06:038,sell,3.93149999,6360,6350,6359.99999999,1.07770939,1.07770939,0 
448,true,filled,15-07-18 12:10:40:446,buy,2.08749521,6304,6314,6304,0.03626827,0.03626827,0 
446,true,filled,15-07-18 11:53:41:425,sell,2.40189014,6356.28,6346.28,6356.28,0.0345,0.0345,0 
442,true,filled,15-07-18 02:03:14:861,buy,4.788255,6230,6240,6229.99999999,1.07594111,1.07594111,0 
440,false,errorneous,14-07-18 23:06:09:930,sell,6.35660546,6284.19659695,6274.19659695,0,0.62630443,0,0 
437,true,filled,14-07-18 23:06:08:948,sell,6.35660546,6284.19659695,6274.19659695,6284.19659694,0.62630443,0.62630443,0 
434,true,filled,14-07-18 22:20:00:879,sell,2.5329,6239.24,6229.24,6239.24,0.0346,0.0346,0 
431,false,missed,14-07-18 22:19:10:617,sell,3.31143024,6239.86,6229.86,0,0.0443,0,0 
428,true,filled,14-07-18 22:19:10:131,sell,3.30142505,6239.86,6229.86,6239.86,0.0443,0.0443,0 
425,true,partial_missed,14-07-18 22:19:00:618,sell,3.16135512,6239.86,6229.86,6233.82999966,0.041,0.01298921,6.03 
422,true,filled,14-07-18 22:19:00:503,sell,3.15135,6239.86,6229.86,6233.83,0.041,0.041,6.02 
419,true,filled,14-07-18 22:18:50:618,sell,3.15135,6239.86,6229.86,6233.83,0.0228,0.0228,6.02 
416,true,filled,14-07-18 22:18:50:393,sell,3.16135482,6239.86,6229.86,6239.86,0.0228,0.0228,0 
413,true,filled,14-07-18 22:17:51:621,sell,3.07344002,6239.15,6229.15,6239.15,0.1424,0.1424,0 
410,false,missed,14-07-18 21:36:42:391,sell,3.69070499,6263.51,6253.51,0,0.04,0,0 
407,true,filled,14-07-18 21:36:42:226,sell,3.69070499,6263.51,6253.51,6263.51,0.04,0.04,0 
404,true,filled,14-07-18 21:36:16:424,sell,2.19157503,6262.97,6252.97,6262.97,0.089001,0.089001,0 
401,false,missed,14-07-18 21:16:10:237,sell,7.77621735,6280.695,6270.695,0,0.06165478,0,0 
398,true,partial_missed,14-07-18 21:16:09:482,sell,7.74620264,6280.695,6270.695,6362.25974025,0.06165478,7.7e-7,81.56 
394,false,errorneous,14-07-18 13:01:04:483,buy,5.06368994,6181.50000001,6191.50000001,0,0.205564,0,0 
391,true,filled,14-07-18 13:01:03:504,buy,7.82230998,6181.50000001,6191.50000001,6181.5,0.205564,0.205564,0 
389,true,filled,14-07-18 10:55:51:757,sell,2.19347974,6245.66,6235.66,6241.01344968,0.0316,0.0316,4.64 
386,true,filled,14-07-18 10:55:51:003,sell,2.19347974,6245.66,6235.66,6245.65999999,0.0316,0.0316,0 
383,false,missed,14-07-18 09:59:40:331,sell,2.05835992,6224,6214,0,0.1405,0,0 
380,true,filled,14-07-18 09:59:40:144,sell,2.06836498,6224,6214,6223.99999999,0.1405,0.1405,0 
376,true,filled,14-07-18 06:26:14:675,buy,6.14549124,6187.5495,6197.5495,6187.54949999,0.99973143,0.99973143,0 
373,true,filled,14-07-18 03:39:30:305,buy,4.20587562,6230.89,6240.89,6230.88999994,0.01919999,0.01919999,0 
370,true,filled,14-07-18 03:38:40:320,buy,2.16218552,6232.46,6242.46,6232.46,0.0152,0.0152,0 
367,true,filled,14-07-18 03:38:30:715,buy,2.02990958,6233.24,6243.24,6233.24,0.0167,0.0167,0 
364,false,missed,14-07-18 03:32:52:930,buy,6.56792042,6239.81,6249.81,0,0.0235,0,0 
361,true,filled,14-07-18 03:32:51:862,buy,6.56792042,6239.81,6249.81,6239.81,0.0235,0.0235,0 
358,false,missed,14-07-18 03:31:30:290,buy,4.15849074,6236.69,6246.69,0,0.0216,0,0 
355,false,missed,14-07-18 01:57:03:314,buy,7.02501677,6198.9553,6208.9553,0,0.08698005,0,0 
353,true,filled,14-07-18 00:19:58:234,sell,2.62133998,6216.43,6206.43,6216.42999999,0.50216187,0.50216187,0 
349,true,filled,13-07-18 23:58:05:098,buy,2.43552501,6168,6178,6168,0.47885479,0.47885479,0 
347,false,missed,13-07-18 23:21:14:827,sell,2.49774038,6210.94,6200.94,0,0.02330709,0,0 
344,true,filled,13-07-18 23:21:14:060,sell,2.48773488,6210.94,6200.94,6210.93999993,0.10587506,0.10587506,0 
341,true,filled,13-07-18 23:16:47:534,sell,2.28342492,6222.15943326,6212.15943326,6222.15943314,0.03668453,0.03668453,0 
337,false,missed,13-07-18 22:43:32:655,buy,6.46653997,6147,6157,0,0.19435638,0,0 
334,false,missed,13-07-18 22:43:32:654,buy,8.47154003,6145,6155,0,0.11670551,0,0 
331,true,partial_missed,13-07-18 22:43:31:872,buy,3.80886503,6150,6160,6150,0.24152786,0.13398239,0 
328,true,filled,13-07-18 22:43:31:871,buy,7.09322522,6148,6158,6149.99999999,0.03188429,0.03188429,1.99 
325,false,missed,13-07-18 22:43:31:869,buy,8.54550003,6147,6157,0,0.37838401,0,0 
322,false,missed,13-07-18 22:43:31:867,buy,10.56049504,6145,6155,0,0.11670551,0,0 
320,true,filled,13-07-18 22:13:29:455,sell,4.36849501,6211,6201,6211,0.63673322,0.63673322,0 
317,false,missed,13-07-18 21:37:57:204,sell,3.92664013,6288.25,6278.25,0,0.01809409,0,0 
314,true,filled,13-07-18 21:37:56:880,sell,4.06671017,6288.25,6278.25,6288.2499993,0.01809409,0.01809409,0 
311,true,partial_missed,13-07-18 21:32:23:215,sell,3.10499996,6302,6292,6296.95376419,0.21590236,0.03847386,5.04 
308,true,filled,13-07-18 19:10:25:828,sell,3.26306094,6272.16853224,6262.16853224,6272.16853221,0.2332989,0.2332989,0 
305,false,missed,13-07-18 19:10:06:092,sell,3.53319586,6272.16853226,6262.16853226,0,0.05616679,0,0 
302,true,partial_missed,13-07-18 19:10:05:463,sell,3.52319101,6272.16853226,6262.16853226,6272.16455695,0.05616679,7.9e-7,0 
299,true,filled,13-07-18 11:58:19:530,sell,3.26401503,6258.99999999,6248.99999999,6258.99999993,0.14445893,0.14445893,0 
295,true,filled,13-07-18 07:01:13:383,buy,40.45115001,6259.73999997,6269.73999997,6259.78911367,0.22185308,0.22185308,0.04 
292,true,filled,13-07-18 03:18:09:167,buy,10.31885002,6268.86,6278.86,6268.85999997,0.78213308,0.78213308,0 
289,true,filled,13-07-18 03:18:08:716,buy,14.18849984,6265,6275,6268.85999973,0.04758927,0.04758927,3.85 
286,true,filled,13-07-18 03:18:08:697,buy,15.19099976,6264,6274,6268.85999957,0.01948437,0.01948437,4.85 
283,false,missed,13-07-18 02:39:58:433,buy,2.26859171,6094.49763428,6104.49763428,0,0.12078913,0,0 
281,true,filled,12-07-18 23:07:25:808,sell,2.39049,6200,6190,6200,1.06429247,1.06429247,0 
278,false,missed,12-07-18 18:42:06:900,sell,3.75115497,6190,6180,0,0.13123626,0,0 
275,true,partial_missed,12-07-18 18:42:06:293,sell,5.28191995,6190,6180,6190.00276434,0.13123626,0.02239225,0 
271,true,filled,12-07-18 13:26:41:215,buy,14.61348999,6130,6140,6130,1.08668473,1.08668473,0 
269,true,filled,12-07-18 09:14:55:676,sell,7.64353501,6326.59,6316.59,6326.58999999,0.47119739,0.47119739,0 
266,true,filled,12-07-18 08:20:41:324,sell,2.06636995,6328.05,6318.05,6319.92999977,0.0446,0.0446,8.12 
263,true,filled,12-07-18 08:20:40:602,sell,2.06636995,6328.05,6318.05,6328.04999977,0.0446,0.0446,0 
260,false,missed,12-07-18 08:05:21:233,sell,2.553645,6335.71,6325.71,0,0.042,0,0 
257,true,filled,12-07-18 08:05:20:267,sell,2.54364,6335.71,6325.71,6335.71,0.042,0.042,0 
254,true,filled,12-07-18 08:00:07:220,sell,2.70241503,6346.15,6336.15,6346.14999999,0.33890455,0.33890455,0 
251,true,filled,12-07-18 07:49:21:076,sell,2.38147507,6346.41,6336.41,6346.40999995,0.11624694,0.11624694,0 
247,false,errorneous,12-07-18 03:13:32:095,buy,3.31312501,6341.9,6351.9,0,0.59154121,0,0 
244,false,errorneous,12-07-18 03:13:31:195,buy,3.38309001,6341.9,6351.9,0,0.59154121,0,0 
241,false,errorneous,12-07-18 03:13:31:097,buy,3.38309001,6341.9,6351.9,0,0.59154121,0,0 
238,true,filled,12-07-18 03:13:29:922,buy,3.52302001,6341.9,6351.9,6341.89999998,0.59154121,0.59154121,0 
235,true,filled,12-07-18 03:09:02:948,buy,3.46975761,6341.34495506,6351.34495506,6341.34495504,0.16229938,0.16229938,0 
232,false,missed,12-07-18 03:07:23:039,buy,3.38979756,6341.34495508,6351.34495508,0,0.06669467,0,0 
229,true,filled,12-07-18 03:07:22:709,buy,3.37980261,6341.34495508,6351.34495508,6341.344955,0.06669467,0.06669467,0 
226,false,missed,12-07-18 02:57:02:990,buy,5.66454561,6351.03,6361.03,0,0.0114,0,0 
223,true,filled,12-07-18 02:57:02:108,buy,4.8949307,6351.03,6361.03,6351.03,0.0114,0.0114,0 
220,true,partial_missed,12-07-18 02:56:32:986,buy,2.28431471,6351.67,6361.67,6355.94506605,0.0231,0.00089999,4.27 
217,true,filled,12-07-18 02:56:30:960,buy,2.29431098,6351.67,6361.67,6351.67,0.0173,0.0173,0 
214,true,partial_missed,12-07-18 02:55:21:983,buy,3.11072033,6352.73,6362.73,6359.15,0.0236,0.0108874,6.42 
211,true,filled,12-07-18 02:55:21:071,buy,3.11072033,6352.73,6362.73,6359.14999999,0.0236,0.0236,6.41 
208,false,missed,12-07-18 02:53:02:972,buy,3.04494943,6348,6358,0,0.0176,0,0 
205,false,missed,12-07-18 02:53:01:982,buy,3.05494431,6348,6358,0,0.0176,0,0 
202,true,filled,12-07-18 02:53:01:794,buy,3.05494431,6348,6358,6348,0.0176,0.0176,0 
199,true,filled,12-07-18 02:46:46:906,buy,4.22505096,6347.77,6357.77,6352.28177331,0.01650284,0.01650284,4.51 
196,true,filled,12-07-18 02:44:14:906,buy,5.16061492,6345.76,6355.76,6347.00696616,0.0201,0.0201,1.24 
193,true,filled,12-07-18 02:44:14:026,buy,2.7918,6345.76,6355.76,6345.76,0.0201,0.0201,0 
190,true,filled,12-07-18 02:43:51:895,buy,2.63139959,6345.92,6355.92,6351.11820408,0.0245,0.0245,5.19 
187,true,filled,12-07-18 02:43:51:286,buy,2.63139959,6345.92,6355.92,6345.92,0.0245,0.0245,0 
184,true,filled,12-07-18 02:43:50:907,buy,2.63140029,6345.92,6355.92,6350.30974099,0.01439719,0.01439719,4.38 
181,true,filled,12-07-18 02:43:50:248,buy,2.63140029,6345.92,6355.92,6345.91999966,0.01439719,0.01439719,0 
178,true,filled,12-07-18 02:38:11:172,buy,3.36620048,6347.53,6357.53,6347.52999951,0.020829,0.020829,0 
176,false,errorneous,11-07-18 17:17:54:013,sell,6.89760786,6378.01865448,6368.01865448,0,0.11243119,0,0 
173,false,errorneous,11-07-18 17:17:52:949,sell,4.012319,6373.07999999,6363.07999999,0,0.01,0,0 
170,false,errorneous,11-07-18 17:17:52:946,sell,8.93862779,6378.01865448,6368.01865448,0,0.11243119,0,0 
167,true,filled,11-07-18 17:17:51:883,sell,8.94863284,6378.01865448,6368.01865448,6378.01865447,1.05638441,1.05638441,0 
163,true,filled,11-07-18 16:08:17:613,buy,2.729105,6350,6360,6350,1.05638441,1.05638441,0 
161,true,filled,11-07-18 14:15:43:974,sell,5.19308998,6386.36,6376.36,6386.35999998,0.48124702,0.48124702,0 
158,true,filled,11-07-18 14:15:43:763,sell,5.19309005,6386.36,6376.36,6386.36,0.10297475,0.10297475,0 
155,true,filled,11-07-18 14:15:42:932,sell,5.19309005,6386.36,6376.36,6386.36,0.10297475,0.10297475,0 
152,true,filled,11-07-18 13:20:27:357,sell,4.79413496,6362.59999998,6352.59999998,6352.99999958,0.02395929,0.02395929,9.6 
149,true,filled,11-07-18 13:20:27:053,sell,4.79413496,6362.59999998,6352.59999998,6353.00011519,0.02395929,0.02395929,9.59 
146,true,filled,11-07-18 13:19:47:375,sell,2.65936502,6360.5,6350.5,6352.99999987,0.16192433,0.16192433,7.5 
143,true,filled,11-07-18 13:19:47:123,sell,2.65936502,6360.5,6350.5,6360.49999996,0.16192433,0.16192433,0 
139,false,errorneous,11-07-18 11:47:02:714,buy,2.31672042,6344.2,6354.2,0,0.01024705,0,0 
136,false,errorneous,11-07-18 11:47:01:715,buy,2.31672042,6344.2,6354.2,0,0.01024705,0,0 
133,false,errorneous,11-07-18 11:47:01:641,buy,2.32671549,6344.2,6354.2,0,0.01024705,0,0 
130,false,errorneous,11-07-18 11:47:00:724,buy,2.3267152,6344.2,6354.2,0,0.05829395,0,0 
127,true,filled,11-07-18 11:47:00:394,buy,2.3267152,6344.2,6354.2,6344.2,0.05829395,0.05829395,0 
125,true,filled,11-07-18 11:34:21:721,sell,2.1808948,6373.25,6363.25,6372.84688311,0.0154,0.0154,0.4 
122,true,filled,11-07-18 09:48:40:966,sell,2.32871991,6327.31,6317.31,6327.30999975,0.041638,0.041638,0 
118,true,filled,11-07-18 06:46:37:150,buy,14.16346,6300,6310,6300,1.0577078,1.0577078,0 
115,false,missed,10-07-18 12:21:02:036,buy,5.09169499,6502,6512,0,0.24301315,0,0 
113,true,filled,10-07-18 01:26:07:731,sell,2.90555998,6742,6732,6742,0.25577494,0.25577494,0 
109,true,partial_missed,10-07-18 01:10:31:730,buy,2.76550001,6741,6751,6747.33815232,0.4403793,0.25577494,6.33 
107,true,filled,09-07-18 22:37:13:489,sell,3.80475246,6734.92753557,6724.92753557,6734.92753543,0.01356939,0.01356939,0 
103,true,partial_missed,09-07-18 21:19:58:163,buy,2.05932846,6684.33660004,6694.33660004,6684.3365995,0.02353339,0.01356939,0 
