id ,successful,status        ,time                 ,type,EXP_profit_per_Commodity_unit,EXP_price    ,SAFE_price   ,ACTUAL_price ,amount    ,filled_amount,delta
745,true      ,filled        ,27-05-18 19:06:27:133,buy ,5.51125                      ,7325         ,7335         ,7324.99999998,0.57830437,0.57830437   ,0
743,true      ,filled        ,27-05-18 18:39:12:128,sell,6.954525                     ,7370         ,7360         ,7369.99999999,0.57843017,0.57843017   ,0
739,true      ,filled        ,27-05-18 16:17:37:427,buy ,6.97664957                   ,7269.65      ,7279.65      ,7269.64999979,0.01202205,0.01202205   ,0
737,false     ,missed        ,27-05-18 16:16:50:654,sell,7.07340005                   ,7327.04      ,7317.04      ,0            ,0.011941  ,0            ,0
734,true      ,filled        ,27-05-18 16:16:50:626,sell,7.07340005                   ,7327.04      ,7317.04      ,7327.04      ,0.011941  ,0.011941     ,0
731,false     ,missed        ,27-05-18 16:16:32:643,sell,7.69419008                   ,7326.88      ,7316.88      ,0            ,0.02012577,0            ,0
728,true      ,partial_missed,27-05-18 16:16:31:647,sell,7.684185                     ,7326.88      ,7316.88      ,7326.87012987,0.02012577,7.7e-7       ,0
725,false     ,missed        ,27-05-18 16:16:31:566,sell,7.684185                     ,7326.88      ,7316.88      ,0            ,0.02012577,0            ,0
721,true      ,filled        ,27-05-18 11:58:59:311,buy ,-1.49917977                  ,7283         ,7293         ,7283         ,0.04533527,0.04533527   ,0
719,false     ,missed        ,27-05-18 11:48:50:645,sell,8.17987417                   ,7315.06      ,7305.06      ,0            ,0.01787683,0            ,0
716,true      ,filled        ,27-05-18 11:48:50:220,sell,8.17987417                   ,7315.06      ,7305.06      ,7315.05999945,0.01787683,0.01787683   ,0
713,false     ,missed        ,27-05-18 11:36:01:481,sell,4.01506521                   ,7315.97      ,7305.97      ,0            ,0.0138    ,0            ,0
710,true      ,filled        ,27-05-18 11:36:01:282,sell,4.01506521                   ,7315.97      ,7305.97      ,7315.97      ,0.0138    ,0.0138       ,0
707,false     ,missed        ,27-05-18 11:35:41:483,sell,4.01506555                   ,7315.97      ,7305.97      ,0            ,0.01352954,0            ,0
704,true      ,filled        ,27-05-18 11:35:41:379,sell,4.01506555                   ,7315.97      ,7305.97      ,7315.96999971,0.01352954,0.01352954   ,0
700,true      ,filled        ,27-05-18 10:42:55:766,buy ,0.95452497                   ,7347.99      ,7357.99      ,7347.98999995,0.14604434,0.14604434   ,0
697,true      ,filled        ,27-05-18 10:42:55:573,buy ,3.95199924                   ,7345         ,7355         ,7347.34243277,0.01335979,0.01335979   ,2.34
694,true      ,filled        ,27-05-18 10:41:43:575,buy ,2.40036484                   ,7319.15      ,7329.15      ,7319.15      ,0.0354394 ,0.0354394    ,0
692,true      ,filled        ,27-05-18 10:18:04:231,sell,4.79944494                   ,7301.3       ,7291.3       ,7292.93      ,0.0643    ,0.0643       ,8.36
689,true      ,filled        ,27-05-18 09:45:22:752,sell,5.80612521                   ,7319.25      ,7309.25      ,7310.29199996,0.06632905,0.06632905   ,8.95
686,true      ,filled        ,27-05-18 09:45:22:141,sell,5.80612521                   ,7319.25      ,7309.25      ,7319.24999996,0.06632905,0.06632905   ,0
682,true      ,filled        ,27-05-18 09:08:09:349,buy ,-1.14515986                  ,7258.28      ,7268.28      ,7258.27999974,0.01260369,0.01260369   ,0
679,false     ,missed        ,27-05-18 09:05:43:297,buy ,-1.99557926                  ,7255.23      ,7265.23      ,0            ,0.01039194,0            ,0
676,true      ,filled        ,27-05-18 09:05:42:880,buy ,-1.98558401                  ,7255.23      ,7265.23      ,7255.2299994 ,0.01039194,0.01039194   ,0
673,true      ,filled        ,27-05-18 09:05:42:295,buy ,-1.98558394                  ,7255.23      ,7265.23      ,7255.22999864,0.01020806,0.01020806   ,0
670,false     ,missed        ,27-05-18 09:05:41:294,buy ,-1.98558394                  ,7255.23      ,7265.23      ,0            ,0.01020806,0            ,0
667,true      ,filled        ,27-05-18 09:05:41:263,buy ,-1.98558394                  ,7255.23      ,7265.23      ,7255.22999864,0.01020806,0.01020806   ,0
664,false     ,missed        ,27-05-18 09:05:02:276,buy ,-1.02606442                  ,7255.23      ,7265.23      ,0            ,0.04337444,0            ,0
661,true      ,filled        ,27-05-18 09:04:52:268,buy ,-1.99557839                  ,7255.23      ,7265.23      ,7255.22999956,0.01077889,0.01077889   ,0
658,true      ,filled        ,27-05-18 08:59:51:131,buy ,1.09099003                   ,7259.19      ,7269.19      ,7265.08940208,0.04116   ,0.04116      ,5.89
655,true      ,filled        ,27-05-18 08:59:50:538,buy ,1.09099003                   ,7259.19      ,7269.19      ,7259.19      ,0.04116   ,0.04116      ,0
652,true      ,filled        ,27-05-18 08:56:31:106,buy ,-0.59833423                  ,7265.91      ,7275.91      ,7274.3       ,0.0222    ,0.0222       ,8.39
649,true      ,filled        ,27-05-18 08:56:30:306,buy ,-0.59833423                  ,7265.91      ,7275.91      ,7265.91      ,0.0222    ,0.0222       ,0
647,false     ,missed        ,27-05-18 08:34:31:776,sell,5.52001505                   ,7314.57      ,7304.57      ,0            ,0.0299    ,0            ,0
644,true      ,filled        ,27-05-18 08:34:30:943,sell,5.50000535                   ,7314.57      ,7304.57      ,7314.57      ,0.0299    ,0.0299       ,0
641,true      ,filled        ,27-05-18 08:34:22:352,sell,6.03027023                   ,7314.57      ,7304.57      ,7314.57      ,0.0168    ,0.0168       ,0
638,true      ,partial_missed,27-05-18 08:34:21:775,sell,6.0302704                    ,7314.57      ,7304.57      ,7314.57      ,0.03187899,0.021869     ,0
635,true      ,filled        ,27-05-18 08:34:21:265,sell,6.03027014                   ,7314.57      ,7304.57      ,7314.57      ,0.032131  ,0.032131     ,0
632,false     ,missed        ,27-05-18 08:33:41:758,sell,4.24607998                   ,7315.67      ,7305.67      ,0            ,0.07779999,0            ,0
629,true      ,filled        ,27-05-18 08:33:41:569,sell,13.77083994                  ,7315.67      ,7305.67      ,7315.66999994,0.07779999,0.07779999   ,0
626,false     ,missed        ,27-05-18 08:23:52:583,sell,5.517                        ,7312.24      ,7302.24      ,0            ,0.1616    ,0            ,0
623,true      ,partial_missed,27-05-18 08:23:52:291,sell,5.517                        ,7312.24      ,7302.24      ,7309.24222048,0.1616    ,0.00173115   ,2.99
620,false     ,missed        ,27-05-18 03:19:01:146,sell,9.7507497                    ,7321.7       ,7311.7       ,0            ,0.02104503,0            ,0
617,true      ,partial_missed,27-05-18 03:19:00:780,sell,9.7507497                    ,7321.7       ,7311.7       ,7315.00327922,0.02104503,0.00006099   ,6.69
613,true      ,filled        ,27-05-18 01:45:17:299,buy ,-0.98549996                  ,7325         ,7335         ,7324.99999999,0.15494375,0.15494375   ,0
610,true      ,filled        ,27-05-18 01:45:17:281,buy ,-0.9755032                   ,7325         ,7335         ,7325         ,0.012798  ,0.012798     ,0
608,true      ,filled        ,27-05-18 01:20:51:298,sell,4.10377498                   ,7466.49      ,7456.49      ,7466.48999995,0.09232813,0.09232813   ,0
605,true      ,filled        ,27-05-18 00:30:18:504,sell,4.20674999                   ,7568.9       ,7558.9       ,7568.89999971,0.01066757,0.01066757   ,0
602,true      ,filled        ,27-05-18 00:21:10:504,sell,4.56366015                   ,7590.00000001,7580.00000001,7590         ,0.03072   ,0.03072      ,0
599,true      ,filled        ,27-05-18 00:21:10:400,sell,4.56366015                   ,7590.00000001,7580.00000001,7590         ,0.03072   ,0.03072      ,0
595,true      ,filled        ,26-05-18 17:38:52:549,buy ,-1.42628465                  ,7515.24      ,7525.24      ,7515.2399997 ,0.01206689,0.01206689   ,0
592,false     ,missed        ,26-05-18 17:06:36:316,buy ,0.07068484                   ,7516         ,7526         ,0            ,0.01206567,0            ,0
580,true      ,filled        ,26-05-18 16:03:02:540,buy ,-1.52249993                  ,7504         ,7514         ,7503.99999999,0.15426999,0.15426999   ,0
577,true      ,filled        ,26-05-18 16:03:00:354,buy ,-1.52249987                  ,7504         ,7514         ,7503.99999999,0.186189  ,0.186189     ,0
574,true      ,filled        ,26-05-18 16:02:50:323,buy ,-1.52249987                  ,7504         ,7514         ,7503.99999999,0.186189  ,0.186189     ,0
571,true      ,filled        ,26-05-18 15:56:09:897,buy ,0.98785951                   ,7500.13      ,7510.13      ,7500.13      ,0.037697  ,0.037697     ,0
569,true      ,filled        ,26-05-18 11:40:25:200,sell,6.62420999                   ,7570.15      ,7560.15      ,7570.14999997,0.35612751,0.35612751   ,0
566,true      ,filled        ,26-05-18 11:40:25:195,sell,7.45462491                   ,7570.15      ,7560.15      ,7570.15      ,0.217364  ,0.217364     ,0
563,false     ,missed        ,26-05-18 10:39:47:294,sell,11.23731                     ,7593.23      ,7583.23      ,0            ,0.42345859,0            ,0
560,false     ,missed        ,26-05-18 10:32:51:203,sell,5.17210503                   ,7603.95999999,7593.95999999,0            ,0.18736059,0            ,0
557,false     ,missed        ,26-05-18 10:32:51:199,sell,7.16309994                   ,7603.95999999,7593.95999999,0            ,0.262366  ,0            ,0
553,true      ,filled        ,26-05-18 10:26:12:110,buy ,-1.47050497                  ,7490         ,7500         ,7490         ,0.57349154,0.57349154   ,0
551,true      ,filled        ,26-05-18 09:49:51:344,sell,9.515715                     ,7443.4       ,7433.4       ,7443.39999999,0.58072278,0.58072278   ,0
547,true      ,filled        ,26-05-18 09:16:42:272,buy ,2.19714562                   ,7406.88      ,7416.88      ,7406.87999974,0.02193962,0.02193962   ,0
545,true      ,filled        ,26-05-18 09:07:55:061,sell,4.69351507                   ,7450         ,7440         ,7450         ,0.021166  ,0.021166     ,0
541,true      ,filled        ,26-05-18 08:12:52:360,buy ,1.36928                      ,7353         ,7363         ,7352.99999999,0.53931618,0.53931618   ,0
538,true      ,filled        ,26-05-18 08:12:52:352,buy ,1.37927521                   ,7353         ,7363         ,7353         ,0.040633  ,0.040633     ,0
536,true      ,filled        ,26-05-18 07:52:03:554,sell,4.97849998                   ,7398.36      ,7388.36      ,7398.35999999,0.28185798,0.28185798   ,0
533,true      ,filled        ,26-05-18 07:51:35:981,sell,6.17909997                   ,7398.36      ,7388.36      ,7398.35999996,0.280848  ,0.280848     ,0
530,false     ,missed        ,26-05-18 07:14:45:712,sell,6.57741023                   ,7419         ,7409         ,0            ,0.01653147,0            ,0
527,true      ,filled        ,26-05-18 07:14:35:697,sell,6.57741023                   ,7419         ,7409         ,7419         ,0.01653147,0.01653147   ,0
523,true      ,filled        ,26-05-18 03:27:01:812,buy ,0.66847839                   ,7412.61222603,7422.61222603,7412.61222601,0.54294648,0.54294648   ,0
520,true      ,filled        ,26-05-18 03:27:01:794,buy ,2.22769839                   ,7412.61222603,7422.61222603,7412.61222578,0.03629099,0.03629099   ,0
518,true      ,filled        ,26-05-18 02:53:05:096,sell,6.42756                      ,7488.96      ,7478.96      ,7488.95999999,0.57661396,0.57661396   ,0
514,true      ,filled        ,26-05-18 02:02:03:214,buy ,-0.43586494                  ,7385         ,7395         ,7385.00026699,0.27659194,0.27659193   ,0
511,true      ,filled        ,26-05-18 00:20:04:638,buy ,6.60497502                   ,7390.21      ,7400.21      ,7390.21      ,0.22218   ,0.22218      ,0
509,false     ,missed        ,25-05-18 23:05:05:089,sell,8.0894699                    ,7421.9       ,7411.9       ,0            ,0.07784204,0            ,0
506,true      ,filled        ,25-05-18 23:04:55:169,sell,7.35910501                   ,7421.9       ,7411.9       ,7421.89999999,0.15546199,0.15546199   ,0
500,true      ,filled        ,25-05-18 23:04:55:118,sell,8.06945987                   ,7421.9       ,7411.9       ,7421.89999999,0.143836  ,0.143836     ,0
503,true      ,filled        ,25-05-18 23:04:55:080,sell,7.91938499                   ,7421.9       ,7411.9       ,7421.9       ,0.2       ,0.2          ,0
496,true      ,filled        ,25-05-18 21:09:56:912,buy ,-1.35042804                  ,7400         ,7410         ,7400         ,0.01093457,0.01093457   ,0
494,false     ,missed        ,25-05-18 20:46:21:496,sell,6.64548105                   ,7456.34      ,7446.34      ,0            ,0.010664  ,0            ,0
491,true      ,filled        ,25-05-18 20:46:11:473,sell,6.62547074                   ,7456.34      ,7446.34      ,7456.34      ,0.010664  ,0.010664     ,0
487,true      ,filled        ,25-05-18 17:37:57:584,buy ,8.56649493                   ,7476         ,7486         ,7476         ,0.18989086,0.18989086   ,0
485,false     ,missed        ,25-05-18 16:08:32:242,sell,5.29447503                   ,7509.81      ,7499.81      ,0            ,0.2067    ,0            ,0
482,false     ,missed        ,25-05-18 16:08:04:299,sell,13.98984009                  ,7509.47      ,7499.47      ,0            ,0.0319009 ,0            ,0
479,true      ,filled        ,25-05-18 16:06:33:320,sell,4.10796034                   ,7508.45      ,7498.45      ,7508.44999968,0.01722299,0.01722299   ,0
469,false     ,missed        ,25-05-18 15:05:50:120,buy ,10.853345                    ,7480         ,7490         ,0            ,0.018272  ,0            ,0
466,false     ,missed        ,25-05-18 15:05:50:096,buy ,13.54200013                  ,7480         ,7490         ,0            ,0.030768  ,0            ,0
463,false     ,missed        ,25-05-18 14:30:02:915,buy ,8.51059972                   ,7419.07677837,7429.07677837,0            ,0.0758133 ,0            ,0
460,true      ,partial_missed,25-05-18 14:29:47:967,buy ,7.98086466                   ,7419.07677837,7429.07677837,7419.07677834,0.50187059,0.40420159   ,0
458,true      ,filled        ,25-05-18 13:38:44:561,sell,6.73950002                   ,7425.00000001,7415.00000001,7425         ,0.0675235 ,0.0675235    ,0
455,true      ,filled        ,25-05-18 13:38:43:919,sell,6.73950001                   ,7425.00000001,7415.00000001,7425         ,0.500093  ,0.500093     ,0
452,false     ,missed        ,25-05-18 13:25:13:734,sell,8.30532059                   ,7450         ,7440         ,0            ,0.01245255,0            ,0
449,true      ,filled        ,25-05-18 13:25:12:869,sell,8.2552955                    ,7450         ,7440         ,7450         ,0.01245255,0.01245255   ,0
436,true      ,filled        ,25-05-18 10:41:16:312,buy ,0.90745989                   ,7367.01      ,7377.01      ,7367.01      ,0.053797  ,0.053797     ,0
445,true      ,filled        ,25-05-18 10:41:16:305,buy ,-0.59178998                  ,7367.01      ,7377.01      ,7367.00999999,0.42800505,0.42800505   ,0
439,true      ,filled        ,25-05-18 10:41:16:300,buy ,0.8774748                    ,7367.01      ,7377.01      ,7367.01      ,0.05      ,0.05         ,0
442,true      ,filled        ,25-05-18 10:41:16:291,buy ,-0.51182982                  ,7367.01      ,7377.01      ,7367.01      ,0.048267  ,0.048267     ,0
434,true      ,filled        ,25-05-18 10:32:22:159,sell,11.16074251                  ,7424.989     ,7414.989     ,7424.98899998,0.57907126,0.57907126   ,0
430,true      ,filled        ,25-05-18 05:33:47:428,buy ,-0.1852444                   ,7621.3       ,7631.3       ,7621.29999981,0.03267872,0.03267872   ,0
424,true      ,filled        ,25-05-18 05:33:47:047,buy ,1.11800535                   ,7619.99999998,7629.99999998,7621.29999981,0.02737435,0.02737435   ,1.29
427,true      ,filled        ,25-05-18 05:33:47:043,buy ,-0.18524493                  ,7621.3       ,7631.3       ,7620.49028558,0.04394965,0.04394965   ,0.8
421,true      ,filled        ,25-05-18 05:33:18:074,buy ,-3.79950492                  ,7600         ,7610         ,7599.99999999,0.13484945,0.13484945   ,0
418,true      ,filled        ,25-05-18 05:33:18:050,buy ,6.22549533                   ,7590         ,7600         ,7600         ,0.03      ,0.03         ,10
415,true      ,partial_missed,25-05-18 05:33:18:049,buy ,8.23049505                   ,7588         ,7598         ,7590         ,0.13424414,0.03         ,2
412,false     ,missed        ,25-05-18 05:26:14:948,buy ,11.29303515                  ,7540         ,7550         ,0            ,0.01699076,0            ,0
409,true      ,filled        ,25-05-18 05:26:14:211,buy ,11.27304546                  ,7540         ,7550         ,7540         ,0.01699076,0.01699076   ,0
406,true      ,filled        ,25-05-18 03:57:23:237,buy ,-3.40199994                  ,7530.80000001,7540.80000001,7530.79999997,0.26322827,0.26322827   ,0
404,true      ,filled        ,25-05-18 02:45:00:226,sell,7.86127501                   ,7568         ,7558         ,7566.80263151,0.58192871,0.58192871   ,1.19
400,true      ,filled        ,25-05-18 01:13:21:179,buy ,-3.64944495                  ,7510         ,7520         ,7510         ,0.20521054,0.20521054   ,0
397,true      ,filled        ,25-05-18 01:13:18:939,buy ,-2.64694504                  ,7509         ,7519         ,7509         ,0.11878839,0.11878839   ,0
394,true      ,filled        ,25-05-18 01:10:17:373,buy ,-2.53499451                  ,7505         ,7515         ,7510         ,0.02868192,0.02868192   ,5
391,true      ,filled        ,25-05-18 01:10:17:356,buy ,-2.53499451                  ,7505         ,7515         ,7505         ,0.02868192,0.02868192   ,0
388,true      ,filled        ,25-05-18 01:09:50:846,buy ,0.67840424                   ,7500         ,7510         ,7500         ,0.01561367,0.01561367   ,0
385,false     ,missed        ,25-05-18 00:53:18:172,buy ,13.53394999                  ,7476.02      ,7486.02      ,0            ,0.17990196,0            ,0
382,true      ,filled        ,25-05-18 00:53:17:618,buy ,13.53394999                  ,7476.02      ,7486.02      ,7476.01999994,0.17990196,0.17990196   ,0
377,true      ,filled        ,25-05-18 00:43:24:268,sell,86.04438016                  ,7590         ,7580         ,7590         ,0.080981  ,0.080981     ,0
380,true      ,filled        ,25-05-18 00:43:24:251,sell,85.78425001                  ,7590         ,7580         ,7590         ,0.492085  ,0.492085     ,0
373,true      ,filled        ,24-05-18 22:33:14:215,buy ,15.26605505                  ,7535         ,7545         ,7534.99999999,0.1192045 ,0.1192045    ,0
370,true      ,filled        ,24-05-18 22:20:25:340,buy ,-2.7499995                   ,7580.00000001,7590.00000001,7580         ,0.04002648,0.04002648   ,0
367,true      ,filled        ,24-05-18 22:20:24:704,buy ,-2.75000003                  ,7580.00000001,7590.00000001,7580         ,0.320366  ,0.320366     ,0
364,true      ,filled        ,24-05-18 22:20:22:020,buy ,-2.75                        ,7580.00000001,7590.00000001,7580         ,0.045709  ,0.045709     ,0
361,true      ,filled        ,24-05-18 22:20:21:728,buy ,-2.75                        ,7580.00000001,7590.00000001,7580         ,0.045709  ,0.045709     ,0
359,true      ,filled        ,24-05-18 21:35:38:443,sell,7.132245                     ,7577.56      ,7567.56      ,7577.56      ,0.572886  ,0.572886     ,0
352,true      ,filled        ,24-05-18 20:31:46:581,buy ,-0.42101505                  ,7480         ,7490         ,7480         ,0.155617  ,0.155617     ,0
355,true      ,filled        ,24-05-18 20:31:46:564,buy ,-0.43101                     ,7480         ,7490         ,7480         ,0.31293886,0.31293886   ,0
343,false     ,missed        ,24-05-18 20:19:58:338,buy ,6.74144996                   ,7448         ,7458         ,0            ,0.13641441,0            ,0
346,false     ,missed        ,24-05-18 20:19:58:322,buy ,6.74144996                   ,7448         ,7458         ,0            ,0.12641441,0            ,0
349,false     ,missed        ,24-05-18 20:19:58:320,buy ,6.64149996                   ,7448         ,7458         ,0            ,0.12641441,0            ,0
341,false     ,missed        ,24-05-18 20:19:53:578,sell,5.75713995                   ,7518.99999   ,7508.99999   ,0            ,0.07709152,0            ,0
338,false     ,missed        ,24-05-18 20:19:53:571,sell,5.76714531                   ,7518.99999   ,7508.99999   ,0            ,0.03434   ,0            ,0
332,true      ,filled        ,24-05-18 20:19:53:504,sell,5.75714004                   ,7518.99999   ,7508.99999   ,7518.99999   ,0.21      ,0.21         ,0
335,true      ,filled        ,24-05-18 20:19:53:503,sell,5.73712999                   ,7518.99999   ,7508.99999   ,7518.99998996,0.22419937,0.22419937   ,0
329,true      ,filled        ,24-05-18 20:19:53:457,sell,5.76714531                   ,7518.99999   ,7508.99999   ,7518.9999898 ,0.03434   ,0.03434      ,0
325,true      ,filled        ,24-05-18 19:22:24:033,buy ,-3.04563498                  ,7508.63      ,7518.63      ,7508.62999997,0.41020638,0.41020638   ,0
319,false     ,missed        ,24-05-18 18:57:59:448,buy ,2.70520818                   ,7547.629224  ,7557.629224  ,0            ,0.033     ,0            ,0
322,false     ,missed        ,24-05-18 18:57:59:430,buy ,-0.273302                    ,7547.629224  ,7557.629224  ,0            ,0.13676453,0            ,0
316,true      ,filled        ,24-05-18 18:57:59:042,buy ,-0.27330202                  ,7547.629224  ,7557.629224  ,7547.62922396,0.16976453,0.16976453   ,0
314,true      ,filled        ,24-05-18 18:39:05:968,sell,14.09838001                  ,7560         ,7550         ,7560         ,0.57994749,0.57994749   ,0
310,true      ,filled        ,24-05-18 16:27:50:574,buy ,-2.52199994                  ,7504         ,7514         ,7503.99999999,0.29793783,0.29793783   ,0
307,true      ,filled        ,24-05-18 16:24:17:484,buy ,-1.40055497                  ,7500         ,7510         ,7499.99999999,0.28200963,0.28200963   ,0
305,true      ,filled        ,24-05-18 16:19:21:417,sell,6.73680006                   ,7519.28000007,7509.28000007,7519.28000006,0.58103901,0.58103901   ,0
302,false     ,missed        ,24-05-18 16:19:13:465,sell,30.3765001                   ,7549.99999999,7539.99999999,0            ,0.05768025,0            ,0
299,false     ,missed        ,24-05-18 16:19:13:429,sell,30.3764999                   ,7549.99999999,7539.99999999,0            ,0.04318025,0            ,0
296,false     ,missed        ,24-05-18 16:19:13:328,sell,30.38650482                  ,7549.99999999,7539.99999999,0            ,0.0145    ,0            ,0
292,true      ,filled        ,24-05-18 15:48:21:970,buy ,18.97484914                  ,7499.50588615,7509.50588615,7480         ,0.09429542,0.09429542   ,19.5
280,true      ,filled        ,24-05-18 15:48:20:934,buy ,6.34119954                   ,7499.49588612,7509.49588612,7499.50588553,0.038423  ,0.038423     ,0
283,true      ,filled        ,24-05-18 15:48:20:922,buy ,6.34119915                   ,7499.49588613,7509.49588613,7499.49624501,0.38      ,0.38         ,0
286,true      ,filled        ,24-05-18 15:48:20:904,buy ,6.33117414                   ,7499.50588613,7509.50588613,7499.49588578,0.02618728,0.02618728   ,0.01
289,true      ,filled        ,24-05-18 15:48:20:893,buy ,6.33117464                   ,7499.50588615,7509.50588615,7499.49588603,0.02587526,0.02587526   ,0.01
277,false     ,missed        ,24-05-18 15:48:20:038,buy ,20.03351434                  ,7485.83771647,7495.83771647,0            ,0.0781    ,0            ,0
274,false     ,missed        ,24-05-18 15:48:20:028,buy ,25.1268114                   ,7480.75712141,7490.75712141,0            ,0.01625808,0            ,0
271,false     ,missed        ,24-05-18 15:48:19:178,buy ,20.04350934                  ,7485.83771647,7495.83771647,0            ,0.0781    ,0            ,0
268,true      ,filled        ,24-05-18 15:48:19:078,buy ,25.13680643                  ,7480.75712141,7490.75712141,7483.88208693,0.01625808,0.01625808   ,3.12
266,true      ,filled        ,24-05-18 15:46:17:009,sell,9.07258941                   ,7366.14544803,7356.14544803,7366.145448  ,0.59457965,0.59457965   ,0
262,true      ,filled        ,24-05-18 04:55:17:722,buy ,-0.69800246                  ,7562.001     ,7572.001     ,7562.00099999,0.40595077,0.40595077   ,0
259,false     ,missed        ,24-05-18 04:53:22:797,buy ,-3.05731998                  ,7562.5       ,7572.5       ,0            ,0.1886288 ,0            ,0
256,false     ,missed        ,24-05-18 04:53:20:345,buy ,-3.05731998                  ,7562.5       ,7572.5       ,0            ,0.1886288 ,0            ,0
253,true      ,filled        ,24-05-18 04:53:20:205,buy ,-3.05731998                  ,7562.5       ,7572.5       ,7562.5       ,0.1886288 ,0.1886288    ,0
251,true      ,filled        ,24-05-18 04:13:26:358,sell,19.26585005                  ,7638.41      ,7628.41      ,7638.40999998,0.19381335,0.19381335   ,0
248,false     ,missed        ,24-05-18 04:12:59:942,sell,12.36943495                  ,7639.4       ,7629.4       ,0            ,0.15036869,0            ,0
245,true      ,filled        ,24-05-18 04:12:59:744,sell,12.36943495                  ,7639.4       ,7629.4       ,7639.39999996,0.15036869,0.15036869   ,0
242,false     ,missed        ,24-05-18 04:10:06:916,sell,7.89399748                   ,7640.801     ,7630.801     ,0            ,0.24740678,0            ,0
239,true      ,filled        ,24-05-18 04:10:06:013,sell,7.89399748                   ,7640.801     ,7630.801     ,7640.80099999,0.24740678,0.24740678   ,0
235,true      ,filled        ,24-05-18 03:40:13:672,buy ,-2.01692384                  ,7590.58478689,7600.58478689,7590.58478686,0.30247384,0.30247384   ,0
232,true      ,filled        ,24-05-18 03:40:13:668,buy ,-1.43067487                  ,7590         ,7600         ,7589.99999999,0.03480405,0.03480405   ,0
229,true      ,filled        ,24-05-18 03:40:05:425,buy ,-3.78949476                  ,7590         ,7600         ,7589.99999998,0.04097499,0.04097499   ,0
226,true      ,filled        ,24-05-18 03:40:05:191,buy ,-3.78949476                  ,7590         ,7600         ,7589.99999998,0.04097499,0.04097499   ,0
223,true      ,filled        ,24-05-18 03:40:04:685,buy ,-3.78949476                  ,7590         ,7600         ,7589.99999998,0.04097499,0.04097499   ,0
220,true      ,filled        ,24-05-18 03:40:00:296,buy ,-3.78949477                  ,7590         ,7600         ,7590         ,0.065693  ,0.065693     ,0
217,true      ,filled        ,24-05-18 03:39:59:727,buy ,-3.78949477                  ,7590         ,7600         ,7590         ,0.065693  ,0.065693     ,0
215,true      ,filled        ,24-05-18 02:08:21:795,sell,6.16799997                   ,7548.8       ,7538.8       ,7548.7999999 ,0.06532507,0.06532507   ,0
212,false     ,missed        ,24-05-18 01:22:08:135,sell,21.51502493                  ,7632.39      ,7622.39      ,0            ,0.06532507,0            ,0
209,true      ,filled        ,24-05-18 01:22:07:333,sell,21.54503988                  ,7632.39      ,7622.39      ,7632.38999959,0.02439482,0.02439482   ,0
206,true      ,filled        ,24-05-18 01:22:07:300,sell,21.55504518                  ,7632.39      ,7622.39      ,7632.39      ,0.05931   ,0.05931      ,0
203,false     ,missed        ,24-05-18 01:19:41:177,sell,18.18328987                  ,7632.39995974,7622.39995974,0            ,0.02641668,0            ,0
200,false     ,missed        ,24-05-18 01:19:41:161,sell,18.19329487                  ,7632.39995974,7622.39995974,0            ,0.089788  ,0            ,0
197,true      ,partial_missed,24-05-18 01:19:40:169,sell,18.18328986                  ,7632.39995974,7622.39995974,7632.39995973,0.11620468,0.11155668   ,0
188,true      ,filled        ,24-05-18 01:07:26:487,sell,10.81704781                  ,7623.71134624,7613.71134624,7623.21732937,0.26163661,0.26163661   ,0.49
185,false     ,missed        ,24-05-18 00:36:35:124,sell,9.24600003                   ,7590         ,7580         ,0            ,0.07050873,0            ,0
182,true      ,filled        ,24-05-18 00:36:34:764,sell,9.25600489                   ,7590         ,7580         ,7589.99999984,0.07050873,0.07050873   ,0
178,true      ,filled        ,23-05-18 23:48:21:459,buy ,-3.61216886                  ,7531.78731062,7541.78731062,7531.7873106 ,0.31052094,0.31052094   ,0
175,true      ,filled        ,23-05-18 23:48:14:953,buy ,-3.54220311                  ,7531.78731062,7541.78731062,7531.78731036,0.019999  ,0.019999     ,0
172,true      ,filled        ,23-05-18 23:48:13:693,buy ,-3.54220311                  ,7531.78731062,7541.78731062,7531.78731036,0.019999  ,0.019999     ,0
170,false     ,missed        ,23-05-18 23:31:36:264,sell,8.14950006                   ,7622         ,7612         ,0            ,0.13097299,0            ,0
164,true      ,filled        ,23-05-18 23:31:36:145,sell,8.14949999                   ,7622         ,7612         ,7622         ,0.28547626,0.28547626   ,0
158,false     ,missed        ,23-05-18 23:23:08:137,sell,16.96037976                  ,7639.85      ,7629.85      ,0            ,0.02384867,0            ,0
155,false     ,missed        ,23-05-18 23:23:08:110,sell,16.97038519                  ,7639.85      ,7629.85      ,0            ,0.038266  ,0            ,0
152,true      ,filled        ,23-05-18 23:23:07:286,sell,16.9703851                   ,7639.85      ,7629.85      ,7639.84999987,0.06211468,0.06211468   ,0
149,false     ,missed        ,23-05-18 23:22:59:100,sell,6.73598997                   ,7626.27      ,7616.27      ,0            ,0.061042  ,0            ,0
145,true      ,filled        ,23-05-18 23:10:14:020,buy ,-2.89999997                  ,7630         ,7640         ,7629.99999999,0.58980395,0.58980395   ,0
143,true      ,filled        ,23-05-18 20:18:38:952,sell,6.58962                      ,7555         ,7545         ,7555         ,0.59921534,0.59921534   ,0
139,true      ,filled        ,23-05-18 20:07:45:255,buy ,-2.39620989                  ,7602         ,7612         ,7602         ,0.16296443,0.16296443   ,0
137,false     ,missed        ,23-05-18 20:04:14:472,sell,6.03991513                   ,7634.85      ,7624.85      ,0            ,0.074     ,0            ,0
134,true      ,filled        ,23-05-18 20:04:12:712,sell,6.03991513                   ,7634.85      ,7624.85      ,7634.84999986,0.074     ,0.074        ,0
130,false     ,missed        ,23-05-18 20:01:22:964,buy ,3.02447497                   ,7584.21      ,7594.21      ,0            ,0.08900765,0            ,0
127,true      ,filled        ,23-05-18 20:01:21:689,buy ,-2.77999987                  ,7590         ,7600         ,7598.28266619,0.17683458,0.17683458   ,8.28
124,true      ,filled        ,23-05-18 20:01:21:667,buy ,3.024475                     ,7584.21      ,7594.21      ,7590         ,0.14646618,0.14646618   ,5.78
121,true      ,filled        ,23-05-18 20:01:21:624,buy ,-1.03349496                  ,7584.21      ,7594.21      ,7584.20999994,0.14646618,0.14646618   ,0
118,true      ,filled        ,23-05-18 20:01:17:406,buy ,-3.02987353                  ,7590         ,7600         ,7589.9999995 ,0.020242  ,0.020242     ,0
115,true      ,filled        ,23-05-18 20:01:16:670,buy ,-3.02987353                  ,7590         ,7600         ,7589.9999995 ,0.020242  ,0.020242     ,0
113,true      ,filled        ,23-05-18 19:51:21:359,sell,12.11755498                  ,7663.33      ,7653.33      ,7663.32999983,0.05410736,0.05410736   ,0
110,false     ,missed        ,23-05-18 19:48:56:418,sell,10.03650002                  ,7660         ,7650         ,0            ,0.02079396,0            ,0
107,true      ,filled        ,23-05-18 19:48:56:289,sell,10.03650002                  ,7660         ,7650         ,7660         ,0.02079396,0.02079396   ,0
103,true      ,filled        ,23-05-18 19:47:35:490,buy ,-1.66489989                  ,7618.1       ,7628.1       ,7618.09999986,0.07490129,0.07490129   ,0
194,false     ,errorneous    ,01-01-70 02:00:00:000,sell,6.77872642                   ,7603.8153849 ,7593.8153849 ,0            ,0.32162856,0            ,0
475,false     ,errorneous    ,01-01-70 02:00:00:000,buy ,10.76339                     ,7480         ,7490         ,0            ,0.70805224,0            ,0
583,false     ,errorneous    ,01-01-70 02:00:00:000,buy ,-1.52249944                  ,7504         ,7514         ,0            ,0.01287343,0            ,0
586,false     ,errorneous    ,01-01-70 02:00:00:000,buy ,-1.5224991                   ,7504         ,7514         ,0            ,0.01307874,0            ,0
589,false     ,errorneous    ,01-01-70 02:00:00:000,buy ,-1.5224991                   ,7504         ,7514         ,0            ,0.01307874,0            ,0
472,false     ,errorneous    ,01-01-70 02:00:00:000,buy ,10.76339                     ,7480         ,7490         ,0            ,0.70805224,0            ,0
191,false     ,errorneous    ,01-01-70 02:00:00:000,sell,6.77872643                   ,7603.8153849 ,7593.8153849 ,0            ,0.32162857,0            ,0
167,false     ,errorneous    ,01-01-70 02:00:00:000,sell,8.41963507                   ,7622         ,7612         ,0            ,0.172282  ,0            ,0
161,false     ,errorneous    ,01-01-70 02:00:00:000,sell,8.41963502                   ,7622         ,7612         ,0            ,0.303255  ,0            ,0
