id, successful, status, time, type, EXP_profit_per_Commodity_unit, EXP_price, SAFE_price, ACTUAL_price, amount, filled_amount, delta 
206,true,filled,31-07-18 15:27:50:425,sell,5.46326925,7921.2123,7911.2123,7921.21229979,0.0263289,0.0263289,0 
203,true,filled,31-07-18 15:24:52:770,sell,2.9444645,7930.3321,7920.3321,7926.01219917,0.01653555,0.01653555,4.31 
200,true,filled,31-07-18 15:24:52:201,sell,2.9444645,7930.3321,7920.3321,7930.33209961,0.01653555,0.01653555,0 
196,true,filled,31-07-18 14:45:32:500,buy,2.58596878,7981.3866,7991.3866,7981.3866,0.0378,0.0378,0 
193,true,partial_missed,31-07-18 14:45:32:042,buy,2.58596886,7981.3866,7991.3866,7981.3866,0.04059999,0.0216,0 
191,true,filled,31-07-18 13:43:58:682,sell,2.52325503,8000,7990,8000,0.11470894,0.11470894,0 
188,true,filled,31-07-18 13:19:24:450,sell,2.62450473,7999.59999999,7989.59999999,7999.59999975,0.01643299,0.01643299,0 
185,false,missed,31-07-18 11:25:21:150,sell,4.34254219,8115.6652,8105.6652,0,0.0237,0,0 
182,true,filled,31-07-18 11:25:20:976,sell,4.34254219,8115.6652,8105.6652,8115.6652,0.0237,0.0237,0 
179,false,missed,31-07-18 03:47:22:005,sell,2.32402497,8159.79,8149.79,0,0.04375459,0,0 
176,true,filled,31-07-18 03:47:21:156,sell,2.31401985,8159.79,8149.79,8159.78999985,0.04375459,0.04375459,0 
173,false,missed,31-07-18 03:00:03:615,sell,3.39590997,8199.36,8189.36,0,0.1316203,0,0 
170,true,filled,31-07-18 03:00:03:534,sell,3.37589999,8199.36,8189.36,8199.35999993,0.1316203,0.1316203,0 
167,false,missed,31-07-18 02:59:53:636,sell,11.49187499,8192.05,8182.04999999,0,0.0352,0,0 
163,false,missed,30-07-18 22:28:12:726,buy,10.82043082,8010.1118,8020.1118,0,0.0146,0,0 
160,true,filled,30-07-18 22:28:12:294,buy,9.12128082,8010.1118,8020.1118,8010.1118,0.0146,0.0146,0 
157,false,missed,30-07-18 21:25:05:372,buy,22.86695498,7866.60000001,7876.60000001,0,0.33640555,0,0 
154,false,missed,30-07-18 21:25:04:455,buy,22.88694496,7866.60000001,7876.60000001,0,0.33640555,0,0 
151,false,missed,30-07-18 20:58:36:252,buy,5.23054995,7885.00000001,7895.00000001,0,0.26595143,0,0 
148,true,filled,30-07-18 20:58:35:558,buy,4.540895,7885.00000001,7895.00000001,7885,0.26595143,0.26595143,0 
145,true,filled,30-07-18 20:46:56:658,buy,2.07505468,7934,7944,7934,0.04966539,0.04966539,0 
143,true,filled,30-07-18 20:38:35:134,sell,3.70386,8010,8000,8010,0.35919964,0.35919964,0 
140,true,filled,30-07-18 20:38:27:195,sell,2.44824001,8014.99999999,8004.99999999,8014.99999985,0.06707527,0.06707527,0 
137,true,filled,30-07-18 20:38:27:193,sell,2.44824001,8015,8005,8015,0.53804989,0.53804989,0 
133,false,missed,30-07-18 19:13:06:597,buy,8.01389495,8060,8070,0,0.05043125,0,0 
130,true,filled,30-07-18 19:13:06:030,buy,10.61259499,8060,8070,8062.56401826,0.9643248,0.9643248,2.56 
128,false,errorneous,30-07-18 16:33:52:660,sell,4.26369152,8144.6834,8134.6834,0,0.02209999,0,0 
125,false,errorneous,30-07-18 16:33:52:281,sell,2.51281674,8144.6834,8134.6834,0,0.0221,0,0 
122,true,filled,30-07-18 16:33:51:676,sell,2.51281674,8144.6834,8134.6834,8144.6834,0.0221,0.0221,0 
118,true,filled,30-07-18 03:57:51:096,buy,2.18661266,8132.363,8142.363,8132.363,0.0221,0.0221,0 
116,true,filled,30-07-18 03:07:23:019,sell,15.63000012,8130,8120,8130,0.07485308,0.07485308,0 
113,false,missed,30-07-18 03:06:11:030,sell,4.89624526,8189.4599,8179.4599,0,0.038,0,0 
110,true,filled,30-07-18 03:06:10:477,sell,4.89624526,8189.4599,8179.4599,8189.4599,0.038,0.038,0 
106,false,missed,30-07-18 02:36:13:800,buy,5.62244382,8242.6245,8252.6245,0,0.01248593,0,0 
103,true,filled,30-07-18 02:36:13:193,buy,4.67291903,8242.6245,8252.6245,8242.62449973,0.01248593,0.01248593,0 
